{
  "2019-02-20": [{
    "expand": false,
    "id": 9715999,
    "id_user": 4,
    "id_banner": 4123,
    "shown": "2019-02-20 06:01:12",
    "shown_more": "2019-02-20 06:07:26",
    "is_show": 1,
    "is_more_show": 1,
    "created_at": null,
    "updated_at": "2019-02-20 06:07:26",
    "banner": {
      "id": 4123,
      "name": "123",
      "id_user": 1,
      "id_corp_user": null,
      "type": "G",
      "link": "https://adpaysme.s3.eu-central-1.amazonaws.com/banners/flyer/pIhgpJY7Z1m3NHnBXbveXSh7vrJUAgSCoGupd6Yg.png",
      "props": "a:4:{s:9:\"arRegions\";a:1:{s:4:\"plus\";a:1:{i:0;a:1:{s:7:\"country\";i:3;}}}s:6:\"arAges\";a:2:{s:4:\"plus\";a:0:{}s:5:\"minus\";a:0:{}}s:12:\"arProperties\";a:2:{s:4:\"plus\";a:0:{}s:5:\"minus\";a:0:{}}s:11:\"arInterests\";a:2:{s:4:\"plus\";a:0:{}s:5:\"minus\";a:0:{}}}",
      "date_start": "2019-02-19",
      "date_end": null,
      "money": 5969,
      "money_start": 6044,
      "priority": "N",
      "img": "https://adpaysme.s3.eu-central-1.amazonaws.com/banners/banners/3cZN7K3SVPNiRgL2h7a81kiCHSCIEITE8iSIuFKr.png",
      "status": "Y",
      "text": "",
      "size": "S",
      "is_pay": "Y",
      "img_text": "",
      "lang": "ru",
      "moderator_id": null,
      "pay_type": "1",
      "rework_reason": "",
      "created_at": "2019-02-19 12:05:47",
      "updated_at": "2019-02-25 18:11:00",
      "is_mobile": 0,
      "is_corp": 0,
      "is_eco": 0,
      "loyalty_id": null,
      "loyalty_fillials_id": null,
      "additional": "<a href=\"https://adpaysme.s3.eu-central-1.amazonaws.com/banners/flyer/pIhgpJY7Z1m3NHnBXbveXSh7vrJUAgSCoGupd6Yg.png\" target=\"_blank\" class=\"banner-info__link\">Просмотр листовки</a>",
      "creator": {
        "id": 1,
        "username": "glebofon72@gmail.com",
        "activated": 1,
        "permissions": "a:1:{i:0;s:5:\"admin\";}",
        "last_login": null,
        "first_name": "Evgene",
        "last_name": "Glebov",
        "country_id": 3,
        "region_id": 1602269,
        "city_id": 282,
        "is_child": 0,
        "parent_id": 0,
        "birthdate": "1972-06-08 00:00:00",
        "avatar": "https://adpaysme.s3.eu-central-1.amazonaws.com/avatars/1/bac0ea8893b9a8ad832b47851d5163a0.jpeg",
        "fone_id": null,
        "blocked": 0,
        "created_at": "2014-09-15 07:00:00",
        "updated_at": "2018-07-04 12:12:37",
        "last_premium": [],
        "last_standart": ["3885", "3884", "3890", "3898", "3900", "3904", "3899", "3905", "3914", "3918", "3924", "3931", "3911", "3917", "3930", "3952", "3954", "3962", "3974", "3980", "3943", "3947", "3955", "3975", "3979", "4038", "4041", "4042", "4045", "4059", "4082"],
        "deleted_at": null,
        "age": 47,
        "show_name": "Evgene Glebov",
        "region_view": "Беларусь, Минская область, Минск"
      },
      "real_width": 425,
      "user": {
        "id": 1,
        "username": "glebofon72@gmail.com",
        "activated": 1,
        "permissions": "a:1:{i:0;s:5:\"admin\";}",
        "last_login": null,
        "first_name": "Evgene",
        "last_name": "Glebov",
        "country_id": 3,
        "region_id": 1602269,
        "city_id": 282,
        "is_child": 0,
        "parent_id": 0,
        "birthdate": "1972-06-08 00:00:00",
        "avatar": "https://adpaysme.s3.eu-central-1.amazonaws.com/avatars/1/bac0ea8893b9a8ad832b47851d5163a0.jpeg",
        "fone_id": null,
        "blocked": 0,
        "created_at": "2014-09-15 07:00:00",
        "updated_at": "2018-07-04 12:12:37",
        "last_premium": [],
        "last_standart": ["3885", "3884", "3890", "3898", "3900", "3904", "3899", "3905", "3914", "3918", "3924", "3931", "3911", "3917", "3930", "3952", "3954", "3962", "3974", "3980", "3943", "3947", "3955", "3975", "3979", "4038", "4041", "4042", "4045", "4059", "4082"],
        "deleted_at": null,
        "age": 47,
        "show_name": "Evgene Glebov",
        "region_view": "Беларусь, Минская область, Минск"
      }
    }
  }, {
    "expand": false,
    "id": 9722043,
    "id_user": 4,
    "id_banner": 4124,
    "shown": "2019-02-20 06:01:12",
    "shown_more": "2019-02-20 06:07:19",
    "is_show": 1,
    "is_more_show": 1,
    "created_at": null,
    "updated_at": "2019-02-20 06:07:19",
    "banner": {
      "id": 4124,
      "name": "1234",
      "id_user": 1,
      "id_corp_user": null,
      "type": "G",
      "link": "https://adpaysme.s3.eu-central-1.amazonaws.com/banners/flyer/KSEbad6hN5zQQoo4xHQ05HdPjcVI6StrRgWmk8Xx.png",
      "props": "a:4:{s:9:\"arRegions\";a:1:{s:4:\"plus\";a:1:{i:0;a:1:{s:7:\"country\";i:3;}}}s:6:\"arAges\";a:2:{s:4:\"plus\";a:0:{}s:5:\"minus\";a:0:{}}s:12:\"arProperties\";a:2:{s:4:\"plus\";a:0:{}s:5:\"minus\";a:0:{}}s:11:\"arInterests\";a:2:{s:4:\"plus\";a:0:{}s:5:\"minus\";a:0:{}}}",
      "date_start": "2019-02-19",
      "date_end": null,
      "money": 5972,
      "money_start": 6044,
      "priority": "N",
      "img": "https://adpaysme.s3.eu-central-1.amazonaws.com/banners/banners/mLZsGn8Acd1Qf8jQEEo0TScCBXMA6BotuNJJA7Fq.png",
      "status": "Y",
      "text": "",
      "size": "S",
      "is_pay": "Y",
      "img_text": "",
      "lang": "ru",
      "moderator_id": null,
      "pay_type": "1",
      "rework_reason": "",
      "created_at": "2019-02-19 12:07:19",
      "updated_at": "2019-02-25 18:11:00",
      "is_mobile": 0,
      "is_corp": 0,
      "is_eco": 0,
      "loyalty_id": null,
      "loyalty_fillials_id": null,
      "additional": "<a href=\"https://adpaysme.s3.eu-central-1.amazonaws.com/banners/flyer/KSEbad6hN5zQQoo4xHQ05HdPjcVI6StrRgWmk8Xx.png\" target=\"_blank\" class=\"banner-info__link\">Просмотр листовки</a>",
      "creator": {
        "id": 1,
        "username": "glebofon72@gmail.com",
        "activated": 1,
        "permissions": "a:1:{i:0;s:5:\"admin\";}",
        "last_login": null,
        "first_name": "Evgene",
        "last_name": "Glebov",
        "country_id": 3,
        "region_id": 1602269,
        "city_id": 282,
        "is_child": 0,
        "parent_id": 0,
        "birthdate": "1972-06-08 00:00:00",
        "avatar": "https://adpaysme.s3.eu-central-1.amazonaws.com/avatars/1/bac0ea8893b9a8ad832b47851d5163a0.jpeg",
        "fone_id": null,
        "blocked": 0,
        "created_at": "2014-09-15 07:00:00",
        "updated_at": "2018-07-04 12:12:37",
        "last_premium": [],
        "last_standart": ["3885", "3884", "3890", "3898", "3900", "3904", "3899", "3905", "3914", "3918", "3924", "3931", "3911", "3917", "3930", "3952", "3954", "3962", "3974", "3980", "3943", "3947", "3955", "3975", "3979", "4038", "4041", "4042", "4045", "4059", "4082"],
        "deleted_at": null,
        "age": 47,
        "show_name": "Evgene Glebov",
        "region_view": "Беларусь, Минская область, Минск"
      },
      "real_width": 425,
      "user": {
        "id": 1,
        "username": "glebofon72@gmail.com",
        "activated": 1,
        "permissions": "a:1:{i:0;s:5:\"admin\";}",
        "last_login": null,
        "first_name": "Evgene",
        "last_name": "Glebov",
        "country_id": 3,
        "region_id": 1602269,
        "city_id": 282,
        "is_child": 0,
        "parent_id": 0,
        "birthdate": "1972-06-08 00:00:00",
        "avatar": "https://adpaysme.s3.eu-central-1.amazonaws.com/avatars/1/bac0ea8893b9a8ad832b47851d5163a0.jpeg",
        "fone_id": null,
        "blocked": 0,
        "created_at": "2014-09-15 07:00:00",
        "updated_at": "2018-07-04 12:12:37",
        "last_premium": [],
        "last_standart": ["3885", "3884", "3890", "3898", "3900", "3904", "3899", "3905", "3914", "3918", "3924", "3931", "3911", "3917", "3930", "3952", "3954", "3962", "3974", "3980", "3943", "3947", "3955", "3975", "3979", "4038", "4041", "4042", "4045", "4059", "4082"],
        "deleted_at": null,
        "age": 47,
        "show_name": "Evgene Glebov",
        "region_view": "Беларусь, Минская область, Минск"
      }
    }
  }],
  "2019-02-18": [{
    "expand": false,
    "id": 9714365,
    "id_user": 4,
    "id_banner": 4122,
    "shown": "2019-02-18 12:21:09",
    "shown_more": "2019-02-18 12:21:11",
    "is_show": 1,
    "is_more_show": 1,
    "created_at": null,
    "updated_at": "2019-02-18 12:21:11",
    "banner": {
      "id": 4122,
      "name": "Акция 23 февраля",
      "id_user": 43093,
      "id_corp_user": null,
      "type": "G",
      "link": "https://adpaysme.s3.eu-central-1.amazonaws.com/banners/flyer/utqqq2EfSpkPtYrw7btvwRVSV7JWGsQgCOAWjsoM.png",
      "props": "a:4:{s:9:\"arRegions\";a:1:{s:4:\"plus\";a:1:{i:0;a:1:{s:7:\"country\";i:3;}}}s:6:\"arAges\";a:2:{s:4:\"plus\";a:0:{}s:5:\"minus\";a:0:{}}s:12:\"arProperties\";a:2:{s:4:\"plus\";a:0:{}s:5:\"minus\";a:0:{}}s:11:\"arInterests\";a:2:{s:4:\"plus\";a:0:{}s:5:\"minus\";a:0:{}}}",
      "date_start": "2019-02-14",
      "date_end": null,
      "money": 0,
      "money_start": 0,
      "priority": "N",
      "img": "https://adpaysme.s3.eu-central-1.amazonaws.com/banners/banners/B3aOz5KbiAJliccXv34CSOTfqPXLi28ok2igK0BA.png",
      "status": "Y",
      "text": "",
      "size": "S",
      "is_pay": "Y",
      "img_text": "",
      "lang": "ru",
      "moderator_id": null,
      "pay_type": "1",
      "rework_reason": "",
      "created_at": "2019-02-14 05:32:27",
      "updated_at": "2019-02-14 05:32:30",
      "is_mobile": 0,
      "is_corp": 0,
      "is_eco": 1,
      "loyalty_id": 1,
      "loyalty_fillials_id": null,
      "additional": "<a href=\"https://adpaysme.s3.eu-central-1.amazonaws.com/banners/flyer/utqqq2EfSpkPtYrw7btvwRVSV7JWGsQgCOAWjsoM.png\" target=\"_blank\" class=\"banner-info__link\">Просмотр листовки</a>",
      "creator": {
        "id": 43093,
        "username": "turov@tut.by",
        "activated": 1,
        "permissions": null,
        "last_login": null,
        "first_name": "Сергей",
        "last_name": "Туров",
        "country_id": 3,
        "region_id": 1602269,
        "city_id": 282,
        "is_child": 0,
        "parent_id": 0,
        "birthdate": "1977-11-22 00:00:00",
        "avatar": null,
        "fone_id": null,
        "blocked": 0,
        "created_at": "2017-07-11 05:42:00",
        "updated_at": "2018-06-12 05:35:47",
        "last_premium": [],
        "last_standart": ["3885", "3887", "3884", "3886", "3895", "3894", "3905", "3904", "3918", "3917", "3933", "3934", "3947", "4037", "4038", "4045", "4059", "4058", "4082", "4085"],
        "deleted_at": null,
        "age": 41,
        "show_name": "Сергей Туров",
        "region_view": "Беларусь, Минская область, Минск"
      },
      "real_width": 425,
      "user": {
        "id": 43093,
        "username": "turov@tut.by",
        "activated": 1,
        "permissions": null,
        "last_login": null,
        "first_name": "Сергей",
        "last_name": "Туров",
        "country_id": 3,
        "region_id": 1602269,
        "city_id": 282,
        "is_child": 0,
        "parent_id": 0,
        "birthdate": "1977-11-22 00:00:00",
        "avatar": null,
        "fone_id": null,
        "blocked": 0,
        "created_at": "2017-07-11 05:42:00",
        "updated_at": "2018-06-12 05:35:47",
        "last_premium": [],
        "last_standart": ["3885", "3887", "3884", "3886", "3895", "3894", "3905", "3904", "3918", "3917", "3933", "3934", "3947", "4037", "4038", "4045", "4059", "4058", "4082", "4085"],
        "deleted_at": null,
        "age": 41,
        "show_name": "Сергей Туров",
        "region_view": "Беларусь, Минская область, Минск"
      }
    }
  }],
  "2018-12-27": [{
    "expand": false,
    "id": 9704602,
    "id_user": 4,
    "id_banner": 4120,
    "shown": "2018-12-27 07:13:51",
    "shown_more": "2018-12-27 07:13:55",
    "is_show": 1,
    "is_more_show": 1,
    "created_at": null,
    "updated_at": "2018-12-27 07:13:55",
    "banner": {
      "id": 4120,
      "name": "Туров1",
      "id_user": 1,
      "id_corp_user": null,
      "type": "G",
      "link": "https://adpaysme.s3.eu-central-1.amazonaws.com/banners/flyer/chWWvqtnXlXYjiX31l1wUA2NREfTf3qs0g5ONKrh.png",
      "props": "a:4:{s:9:\"arRegions\";a:1:{s:4:\"plus\";a:1:{i:0;a:1:{s:7:\"country\";i:3;}}}s:6:\"arAges\";a:2:{s:4:\"plus\";a:0:{}s:5:\"minus\";a:0:{}}s:12:\"arProperties\";a:2:{s:4:\"plus\";a:0:{}s:5:\"minus\";a:0:{}}s:11:\"arInterests\";a:2:{s:4:\"plus\";a:0:{}s:5:\"minus\";a:0:{}}}",
      "date_start": "2018-12-26",
      "date_end": null,
      "money": 0,
      "money_start": 2833,
      "priority": "N",
      "img": "https://adpaysme.s3.eu-central-1.amazonaws.com/banners/banners/CBjNXU5166BfA8TXbxIzLIvBTLJg7hGsHXR13hn4.png",
      "status": "S",
      "text": "",
      "size": "S",
      "is_pay": "Y",
      "img_text": "",
      "lang": "ru",
      "moderator_id": null,
      "pay_type": "1",
      "rework_reason": "",
      "created_at": "2018-12-26 10:53:02",
      "updated_at": "2019-01-09 12:57:39",
      "is_mobile": 0,
      "is_corp": 0,
      "is_eco": 0,
      "loyalty_id": null,
      "loyalty_fillials_id": null,
      "additional": "<a href=\"https://adpaysme.s3.eu-central-1.amazonaws.com/banners/flyer/chWWvqtnXlXYjiX31l1wUA2NREfTf3qs0g5ONKrh.png\" target=\"_blank\" class=\"banner-info__link\">Просмотр листовки</a>",
      "creator": {
        "id": 1,
        "username": "glebofon72@gmail.com",
        "activated": 1,
        "permissions": "a:1:{i:0;s:5:\"admin\";}",
        "last_login": null,
        "first_name": "Evgene",
        "last_name": "Glebov",
        "country_id": 3,
        "region_id": 1602269,
        "city_id": 282,
        "is_child": 0,
        "parent_id": 0,
        "birthdate": "1972-06-08 00:00:00",
        "avatar": "https://adpaysme.s3.eu-central-1.amazonaws.com/avatars/1/bac0ea8893b9a8ad832b47851d5163a0.jpeg",
        "fone_id": null,
        "blocked": 0,
        "created_at": "2014-09-15 07:00:00",
        "updated_at": "2018-07-04 12:12:37",
        "last_premium": [],
        "last_standart": ["3885", "3884", "3890", "3898", "3900", "3904", "3899", "3905", "3914", "3918", "3924", "3931", "3911", "3917", "3930", "3952", "3954", "3962", "3974", "3980", "3943", "3947", "3955", "3975", "3979", "4038", "4041", "4042", "4045", "4059", "4082"],
        "deleted_at": null,
        "age": 47,
        "show_name": "Evgene Glebov",
        "region_view": "Беларусь, Минская область, Минск"
      },
      "real_width": 425,
      "user": {
        "id": 1,
        "username": "glebofon72@gmail.com",
        "activated": 1,
        "permissions": "a:1:{i:0;s:5:\"admin\";}",
        "last_login": null,
        "first_name": "Evgene",
        "last_name": "Glebov",
        "country_id": 3,
        "region_id": 1602269,
        "city_id": 282,
        "is_child": 0,
        "parent_id": 0,
        "birthdate": "1972-06-08 00:00:00",
        "avatar": "https://adpaysme.s3.eu-central-1.amazonaws.com/avatars/1/bac0ea8893b9a8ad832b47851d5163a0.jpeg",
        "fone_id": null,
        "blocked": 0,
        "created_at": "2014-09-15 07:00:00",
        "updated_at": "2018-07-04 12:12:37",
        "last_premium": [],
        "last_standart": ["3885", "3884", "3890", "3898", "3900", "3904", "3899", "3905", "3914", "3918", "3924", "3931", "3911", "3917", "3930", "3952", "3954", "3962", "3974", "3980", "3943", "3947", "3955", "3975", "3979", "4038", "4041", "4042", "4045", "4059", "4082"],
        "deleted_at": null,
        "age": 47,
        "show_name": "Evgene Glebov",
        "region_view": "Беларусь, Минская область, Минск"
      }
    }
  }],
  "2018-12-10": [{
    "expand": false,
    "id": 9699102,
    "id_user": 4,
    "id_banner": 4119,
    "shown": "2018-12-10 05:59:03",
    "shown_more": "2018-12-10 05:59:07",
    "is_show": 1,
    "is_more_show": 1,
    "created_at": null,
    "updated_at": "2018-12-10 05:59:07",
    "banner": {
      "id": 4119,
      "name": "Медв.",
      "id_user": 1,
      "id_corp_user": null,
      "type": "G",
      "link": "https://adpaysme.s3.eu-central-1.amazonaws.com/banners/flyer/0X71hrP2fMWiQhHdJyeoBMp055s50VOLS7Hx7QxT.png",
      "props": "a:4:{s:9:\"arRegions\";a:1:{s:4:\"plus\";a:1:{i:0;a:1:{s:7:\"country\";i:3;}}}s:6:\"arAges\";a:2:{s:4:\"plus\";a:0:{}s:5:\"minus\";a:0:{}}s:12:\"arProperties\";a:2:{s:4:\"plus\";a:0:{}s:5:\"minus\";a:0:{}}s:11:\"arInterests\";a:2:{s:4:\"plus\";a:0:{}s:5:\"minus\";a:0:{}}}",
      "date_start": "2018-12-07",
      "date_end": null,
      "money": 5330,
      "money_start": 5500,
      "priority": "N",
      "img": "https://adpaysme.s3.eu-central-1.amazonaws.com/banners/banners/w9Q03YqV6hFiwwETVBUAj9Wv8SzDpU5JNh1gbXiN.png",
      "status": "Y",
      "text": "",
      "size": "S",
      "is_pay": "Y",
      "img_text": "",
      "lang": "ru",
      "moderator_id": null,
      "pay_type": "1",
      "rework_reason": "",
      "created_at": "2018-12-07 13:34:34",
      "updated_at": "2019-02-25 17:15:55",
      "is_mobile": 0,
      "is_corp": 0,
      "is_eco": 0,
      "loyalty_id": null,
      "loyalty_fillials_id": null,
      "additional": "<a href=\"https://adpaysme.s3.eu-central-1.amazonaws.com/banners/flyer/0X71hrP2fMWiQhHdJyeoBMp055s50VOLS7Hx7QxT.png\" target=\"_blank\" class=\"banner-info__link\">Просмотр листовки</a>",
      "creator": {
        "id": 1,
        "username": "glebofon72@gmail.com",
        "activated": 1,
        "permissions": "a:1:{i:0;s:5:\"admin\";}",
        "last_login": null,
        "first_name": "Evgene",
        "last_name": "Glebov",
        "country_id": 3,
        "region_id": 1602269,
        "city_id": 282,
        "is_child": 0,
        "parent_id": 0,
        "birthdate": "1972-06-08 00:00:00",
        "avatar": "https://adpaysme.s3.eu-central-1.amazonaws.com/avatars/1/bac0ea8893b9a8ad832b47851d5163a0.jpeg",
        "fone_id": null,
        "blocked": 0,
        "created_at": "2014-09-15 07:00:00",
        "updated_at": "2018-07-04 12:12:37",
        "last_premium": [],
        "last_standart": ["3885", "3884", "3890", "3898", "3900", "3904", "3899", "3905", "3914", "3918", "3924", "3931", "3911", "3917", "3930", "3952", "3954", "3962", "3974", "3980", "3943", "3947", "3955", "3975", "3979", "4038", "4041", "4042", "4045", "4059", "4082"],
        "deleted_at": null,
        "age": 47,
        "show_name": "Evgene Glebov",
        "region_view": "Беларусь, Минская область, Минск"
      },
      "real_width": 425,
      "user": {
        "id": 1,
        "username": "glebofon72@gmail.com",
        "activated": 1,
        "permissions": "a:1:{i:0;s:5:\"admin\";}",
        "last_login": null,
        "first_name": "Evgene",
        "last_name": "Glebov",
        "country_id": 3,
        "region_id": 1602269,
        "city_id": 282,
        "is_child": 0,
        "parent_id": 0,
        "birthdate": "1972-06-08 00:00:00",
        "avatar": "https://adpaysme.s3.eu-central-1.amazonaws.com/avatars/1/bac0ea8893b9a8ad832b47851d5163a0.jpeg",
        "fone_id": null,
        "blocked": 0,
        "created_at": "2014-09-15 07:00:00",
        "updated_at": "2018-07-04 12:12:37",
        "last_premium": [],
        "last_standart": ["3885", "3884", "3890", "3898", "3900", "3904", "3899", "3905", "3914", "3918", "3924", "3931", "3911", "3917", "3930", "3952", "3954", "3962", "3974", "3980", "3943", "3947", "3955", "3975", "3979", "4038", "4041", "4042", "4045", "4059", "4082"],
        "deleted_at": null,
        "age": 47,
        "show_name": "Evgene Glebov",
        "region_view": "Беларусь, Минская область, Минск"
      }
    }
  }],
  "2018-12-03": [{
    "expand": false,
    "id": 9691744,
    "id_user": 4,
    "id_banner": 4114,
    "shown": "2018-12-03 08:58:01",
    "shown_more": "2018-12-03 08:58:06",
    "is_show": 1,
    "is_more_show": 1,
    "created_at": null,
    "updated_at": "2018-12-03 08:58:06",
    "banner": {
      "id": 4114,
      "name": "Тачки",
      "id_user": 43093,
      "id_corp_user": null,
      "type": "G",
      "link": "https://adpaysme.s3.eu-central-1.amazonaws.com/banners/flyer/S0KV7R2PB8p1oBb3ScV0wJ8ViplSibxDVed5qYfb.png",
      "props": "a:4:{s:9:\"arRegions\";a:1:{s:4:\"plus\";a:1:{i:0;a:1:{s:7:\"country\";i:3;}}}s:6:\"arAges\";a:2:{s:4:\"plus\";a:0:{}s:5:\"minus\";a:0:{}}s:12:\"arProperties\";a:2:{s:4:\"plus\";a:0:{}s:5:\"minus\";a:0:{}}s:11:\"arInterests\";a:2:{s:4:\"plus\";a:0:{}s:5:\"minus\";a:0:{}}}",
      "date_start": "2018-12-03",
      "date_end": null,
      "money": 0,
      "money_start": 0,
      "priority": "N",
      "img": "https://adpaysme.s3.eu-central-1.amazonaws.com/banners/banners/XA8ed6b3HWfcPWWgUfXY7r8jDDqAjtQYOWEFhRUa.png",
      "status": "Y",
      "text": "",
      "size": "S",
      "is_pay": "Y",
      "img_text": "",
      "lang": "ru",
      "moderator_id": null,
      "pay_type": "1",
      "rework_reason": "",
      "created_at": "2018-12-03 07:07:30",
      "updated_at": "2018-12-03 07:07:33",
      "is_mobile": 0,
      "is_corp": 0,
      "is_eco": 1,
      "loyalty_id": 1,
      "loyalty_fillials_id": 3,
      "additional": "<a href=\"https://adpaysme.s3.eu-central-1.amazonaws.com/banners/flyer/S0KV7R2PB8p1oBb3ScV0wJ8ViplSibxDVed5qYfb.png\" target=\"_blank\" class=\"banner-info__link\">Просмотр листовки</a>",
      "creator": {
        "id": 43093,
        "username": "turov@tut.by",
        "activated": 1,
        "permissions": null,
        "last_login": null,
        "first_name": "Сергей",
        "last_name": "Туров",
        "country_id": 3,
        "region_id": 1602269,
        "city_id": 282,
        "is_child": 0,
        "parent_id": 0,
        "birthdate": "1977-11-22 00:00:00",
        "avatar": null,
        "fone_id": null,
        "blocked": 0,
        "created_at": "2017-07-11 05:42:00",
        "updated_at": "2018-06-12 05:35:47",
        "last_premium": [],
        "last_standart": ["3885", "3887", "3884", "3886", "3895", "3894", "3905", "3904", "3918", "3917", "3933", "3934", "3947", "4037", "4038", "4045", "4059", "4058", "4082", "4085"],
        "deleted_at": null,
        "age": 41,
        "show_name": "Сергей Туров",
        "region_view": "Беларусь, Минская область, Минск"
      },
      "real_width": 425,
      "user": {
        "id": 43093,
        "username": "turov@tut.by",
        "activated": 1,
        "permissions": null,
        "last_login": null,
        "first_name": "Сергей",
        "last_name": "Туров",
        "country_id": 3,
        "region_id": 1602269,
        "city_id": 282,
        "is_child": 0,
        "parent_id": 0,
        "birthdate": "1977-11-22 00:00:00",
        "avatar": null,
        "fone_id": null,
        "blocked": 0,
        "created_at": "2017-07-11 05:42:00",
        "updated_at": "2018-06-12 05:35:47",
        "last_premium": [],
        "last_standart": ["3885", "3887", "3884", "3886", "3895", "3894", "3905", "3904", "3918", "3917", "3933", "3934", "3947", "4037", "4038", "4045", "4059", "4058", "4082", "4085"],
        "deleted_at": null,
        "age": 41,
        "show_name": "Сергей Туров",
        "region_view": "Беларусь, Минская область, Минск"
      }
    }
  }, {
    "expand": false,
    "id": 9693214,
    "id_user": 4,
    "id_banner": 4115,
    "shown": "2018-12-03 08:58:01",
    "shown_more": "2018-12-03 08:59:03",
    "is_show": 1,
    "is_more_show": 1,
    "created_at": null,
    "updated_at": "2018-12-03 08:59:03",
    "banner": {
      "id": 4115,
      "name": "Мега подарок-1",
      "id_user": 43093,
      "id_corp_user": null,
      "type": "G",
      "link": "https://adpaysme.s3.eu-central-1.amazonaws.com/banners/flyer/2tFYyFKHNcIpxYtlnOQb1BqwLtzfE8MBVthXNcRp.png",
      "props": "a:4:{s:9:\"arRegions\";a:1:{s:4:\"plus\";a:1:{i:0;a:1:{s:7:\"country\";i:3;}}}s:6:\"arAges\";a:2:{s:4:\"plus\";a:0:{}s:5:\"minus\";a:0:{}}s:12:\"arProperties\";a:2:{s:4:\"plus\";a:0:{}s:5:\"minus\";a:0:{}}s:11:\"arInterests\";a:2:{s:4:\"plus\";a:0:{}s:5:\"minus\";a:0:{}}}",
      "date_start": "2018-12-03",
      "date_end": null,
      "money": 0,
      "money_start": 0,
      "priority": "N",
      "img": "https://adpaysme.s3.eu-central-1.amazonaws.com/banners/banners/pEeSAVQImm4iiOXi3AW3CROOC3yT3K2nMF5SV3Ru.png",
      "status": "S",
      "text": "",
      "size": "S",
      "is_pay": "Y",
      "img_text": "",
      "lang": "ru",
      "moderator_id": null,
      "pay_type": "1",
      "rework_reason": "",
      "created_at": "2018-12-03 08:15:46",
      "updated_at": "2019-02-20 10:44:28",
      "is_mobile": 0,
      "is_corp": 0,
      "is_eco": 1,
      "loyalty_id": 1,
      "loyalty_fillials_id": 4,
      "additional": "<a href=\"https://adpaysme.s3.eu-central-1.amazonaws.com/banners/flyer/2tFYyFKHNcIpxYtlnOQb1BqwLtzfE8MBVthXNcRp.png\" target=\"_blank\" class=\"banner-info__link\">Просмотр листовки</a>",
      "creator": {
        "id": 43093,
        "username": "turov@tut.by",
        "activated": 1,
        "permissions": null,
        "last_login": null,
        "first_name": "Сергей",
        "last_name": "Туров",
        "country_id": 3,
        "region_id": 1602269,
        "city_id": 282,
        "is_child": 0,
        "parent_id": 0,
        "birthdate": "1977-11-22 00:00:00",
        "avatar": null,
        "fone_id": null,
        "blocked": 0,
        "created_at": "2017-07-11 05:42:00",
        "updated_at": "2018-06-12 05:35:47",
        "last_premium": [],
        "last_standart": ["3885", "3887", "3884", "3886", "3895", "3894", "3905", "3904", "3918", "3917", "3933", "3934", "3947", "4037", "4038", "4045", "4059", "4058", "4082", "4085"],
        "deleted_at": null,
        "age": 41,
        "show_name": "Сергей Туров",
        "region_view": "Беларусь, Минская область, Минск"
      },
      "real_width": 425,
      "user": {
        "id": 43093,
        "username": "turov@tut.by",
        "activated": 1,
        "permissions": null,
        "last_login": null,
        "first_name": "Сергей",
        "last_name": "Туров",
        "country_id": 3,
        "region_id": 1602269,
        "city_id": 282,
        "is_child": 0,
        "parent_id": 0,
        "birthdate": "1977-11-22 00:00:00",
        "avatar": null,
        "fone_id": null,
        "blocked": 0,
        "created_at": "2017-07-11 05:42:00",
        "updated_at": "2018-06-12 05:35:47",
        "last_premium": [],
        "last_standart": ["3885", "3887", "3884", "3886", "3895", "3894", "3905", "3904", "3918", "3917", "3933", "3934", "3947", "4037", "4038", "4045", "4059", "4058", "4082", "4085"],
        "deleted_at": null,
        "age": 41,
        "show_name": "Сергей Туров",
        "region_view": "Беларусь, Минская область, Минск"
      }
    }
  }, {
    "expand": false,
    "id": 9694690,
    "id_user": 4,
    "id_banner": 4116,
    "shown": "2018-12-03 08:58:01",
    "shown_more": "2018-12-03 08:58:15",
    "is_show": 1,
    "is_more_show": 1,
    "created_at": null,
    "updated_at": "2018-12-03 08:58:15",
    "banner": {
      "id": 4116,
      "name": "Мега подарок-2",
      "id_user": 43093,
      "id_corp_user": null,
      "type": "G",
      "link": "https://adpaysme.s3.eu-central-1.amazonaws.com/banners/flyer/q6MJarFR7puGKyBbshCcf4XTkp77T5upMB45oTrY.png",
      "props": "a:4:{s:9:\"arRegions\";a:1:{s:4:\"plus\";a:1:{i:0;a:1:{s:7:\"country\";i:3;}}}s:6:\"arAges\";a:2:{s:4:\"plus\";a:0:{}s:5:\"minus\";a:0:{}}s:12:\"arProperties\";a:2:{s:4:\"plus\";a:0:{}s:5:\"minus\";a:0:{}}s:11:\"arInterests\";a:2:{s:4:\"plus\";a:0:{}s:5:\"minus\";a:0:{}}}",
      "date_start": "2018-12-03",
      "date_end": null,
      "money": 0,
      "money_start": 0,
      "priority": "N",
      "img": "https://adpaysme.s3.eu-central-1.amazonaws.com/banners/banners/WfVkyVXwEyllGGesS63rm0uqSnoYJFF4v4mKG5hX.png",
      "status": "S",
      "text": "",
      "size": "S",
      "is_pay": "Y",
      "img_text": "",
      "lang": "ru",
      "moderator_id": null,
      "pay_type": "1",
      "rework_reason": "",
      "created_at": "2018-12-03 08:22:22",
      "updated_at": "2019-02-20 10:44:24",
      "is_mobile": 0,
      "is_corp": 0,
      "is_eco": 1,
      "loyalty_id": 1,
      "loyalty_fillials_id": 85,
      "additional": "<a href=\"https://adpaysme.s3.eu-central-1.amazonaws.com/banners/flyer/q6MJarFR7puGKyBbshCcf4XTkp77T5upMB45oTrY.png\" target=\"_blank\" class=\"banner-info__link\">Просмотр листовки</a>",
      "creator": {
        "id": 43093,
        "username": "turov@tut.by",
        "activated": 1,
        "permissions": null,
        "last_login": null,
        "first_name": "Сергей",
        "last_name": "Туров",
        "country_id": 3,
        "region_id": 1602269,
        "city_id": 282,
        "is_child": 0,
        "parent_id": 0,
        "birthdate": "1977-11-22 00:00:00",
        "avatar": null,
        "fone_id": null,
        "blocked": 0,
        "created_at": "2017-07-11 05:42:00",
        "updated_at": "2018-06-12 05:35:47",
        "last_premium": [],
        "last_standart": ["3885", "3887", "3884", "3886", "3895", "3894", "3905", "3904", "3918", "3917", "3933", "3934", "3947", "4037", "4038", "4045", "4059", "4058", "4082", "4085"],
        "deleted_at": null,
        "age": 41,
        "show_name": "Сергей Туров",
        "region_view": "Беларусь, Минская область, Минск"
      },
      "real_width": 425,
      "user": {
        "id": 43093,
        "username": "turov@tut.by",
        "activated": 1,
        "permissions": null,
        "last_login": null,
        "first_name": "Сергей",
        "last_name": "Туров",
        "country_id": 3,
        "region_id": 1602269,
        "city_id": 282,
        "is_child": 0,
        "parent_id": 0,
        "birthdate": "1977-11-22 00:00:00",
        "avatar": null,
        "fone_id": null,
        "blocked": 0,
        "created_at": "2017-07-11 05:42:00",
        "updated_at": "2018-06-12 05:35:47",
        "last_premium": [],
        "last_standart": ["3885", "3887", "3884", "3886", "3895", "3894", "3905", "3904", "3918", "3917", "3933", "3934", "3947", "4037", "4038", "4045", "4059", "4058", "4082", "4085"],
        "deleted_at": null,
        "age": 41,
        "show_name": "Сергей Туров",
        "region_view": "Беларусь, Минская область, Минск"
      }
    }
  }],
  "2018-10-24": [{
    "expand": false,
    "id": 9687588,
    "id_user": 4,
    "id_banner": 4109,
    "shown": "2018-10-24 16:55:49",
    "shown_more": "2018-10-24 16:55:59",
    "is_show": 1,
    "is_more_show": 1,
    "created_at": null,
    "updated_at": "2018-10-24 16:55:59",
    "banner": {
      "id": 4109,
      "name": "Требуется продавец",
      "id_user": 43093,
      "id_corp_user": null,
      "type": "L",
      "link": "https://jobs.tut.by/vacancy/28442386",
      "props": "a:4:{s:9:\"arRegions\";a:1:{s:4:\"plus\";a:1:{i:0;a:1:{s:7:\"country\";i:3;}}}s:6:\"arAges\";a:2:{s:4:\"plus\";a:0:{}s:5:\"minus\";a:0:{}}s:12:\"arProperties\";a:2:{s:4:\"plus\";a:0:{}s:5:\"minus\";a:0:{}}s:11:\"arInterests\";a:2:{s:4:\"plus\";a:0:{}s:5:\"minus\";a:0:{}}}",
      "date_start": "2018-10-24",
      "date_end": null,
      "money": 0,
      "money_start": 0,
      "priority": "N",
      "img": "https://adpaysme.s3.eu-central-1.amazonaws.com/banners/banners/EssB2w4NeWbNZ1d088Swu7HSWWOqEqbyuyn2poHF.png",
      "status": "S",
      "text": "",
      "size": "S",
      "is_pay": "Y",
      "img_text": "",
      "lang": "ru",
      "moderator_id": null,
      "pay_type": "1",
      "rework_reason": "",
      "created_at": "2018-10-24 09:11:12",
      "updated_at": "2018-12-03 04:51:13",
      "is_mobile": 0,
      "is_corp": 0,
      "is_eco": 1,
      "loyalty_id": 1,
      "loyalty_fillials_id": 1,
      "additional": "<a href=\"https://jobs.tut.by/vacancy/28442386\" target=\"_blank\" class=\"banner-info__link\">https://jobs.tut.by/vacancy/28442386</a>",
      "creator": {
        "id": 43093,
        "username": "turov@tut.by",
        "activated": 1,
        "permissions": null,
        "last_login": null,
        "first_name": "Сергей",
        "last_name": "Туров",
        "country_id": 3,
        "region_id": 1602269,
        "city_id": 282,
        "is_child": 0,
        "parent_id": 0,
        "birthdate": "1977-11-22 00:00:00",
        "avatar": null,
        "fone_id": null,
        "blocked": 0,
        "created_at": "2017-07-11 05:42:00",
        "updated_at": "2018-06-12 05:35:47",
        "last_premium": [],
        "last_standart": ["3885", "3887", "3884", "3886", "3895", "3894", "3905", "3904", "3918", "3917", "3933", "3934", "3947", "4037", "4038", "4045", "4059", "4058", "4082", "4085"],
        "deleted_at": null,
        "age": 41,
        "show_name": "Сергей Туров",
        "region_view": "Беларусь, Минская область, Минск"
      },
      "real_width": 425,
      "user": {
        "id": 43093,
        "username": "turov@tut.by",
        "activated": 1,
        "permissions": null,
        "last_login": null,
        "first_name": "Сергей",
        "last_name": "Туров",
        "country_id": 3,
        "region_id": 1602269,
        "city_id": 282,
        "is_child": 0,
        "parent_id": 0,
        "birthdate": "1977-11-22 00:00:00",
        "avatar": null,
        "fone_id": null,
        "blocked": 0,
        "created_at": "2017-07-11 05:42:00",
        "updated_at": "2018-06-12 05:35:47",
        "last_premium": [],
        "last_standart": ["3885", "3887", "3884", "3886", "3895", "3894", "3905", "3904", "3918", "3917", "3933", "3934", "3947", "4037", "4038", "4045", "4059", "4058", "4082", "4085"],
        "deleted_at": null,
        "age": 41,
        "show_name": "Сергей Туров",
        "region_view": "Беларусь, Минская область, Минск"
      }
    }
  }, {
    "expand": false,
    "id": 9688880,
    "id_user": 4,
    "id_banner": 4110,
    "shown": "2018-10-24 16:55:49",
    "shown_more": "2018-10-24 16:55:53",
    "is_show": 1,
    "is_more_show": 1,
    "created_at": null,
    "updated_at": "2018-10-24 16:55:53",
    "banner": {
      "id": 4110,
      "name": "Скидки 2",
      "id_user": 43093,
      "id_corp_user": null,
      "type": "G",
      "link": "https://adpaysme.s3.eu-central-1.amazonaws.com/banners/flyer/qSGWpqPSz6cuw9hM5FnowmUuVQ9vJhPRp9bMScOQ.png",
      "props": "a:4:{s:9:\"arRegions\";a:1:{s:4:\"plus\";a:1:{i:0;a:1:{s:7:\"country\";i:3;}}}s:6:\"arAges\";a:2:{s:4:\"plus\";a:0:{}s:5:\"minus\";a:0:{}}s:12:\"arProperties\";a:2:{s:4:\"plus\";a:0:{}s:5:\"minus\";a:0:{}}s:11:\"arInterests\";a:2:{s:4:\"plus\";a:0:{}s:5:\"minus\";a:0:{}}}",
      "date_start": "2018-10-24",
      "date_end": null,
      "money": 0,
      "money_start": 0,
      "priority": "N",
      "img": "https://adpaysme.s3.eu-central-1.amazonaws.com/banners/banners/GfxrUPYNLnHYzK9S5kVbGs0riEDyEvEHENm9cNFr.png",
      "status": "S",
      "text": "",
      "size": "S",
      "is_pay": "Y",
      "img_text": "",
      "lang": "ru",
      "moderator_id": null,
      "pay_type": "1",
      "rework_reason": "",
      "created_at": "2018-10-24 09:19:08",
      "updated_at": "2018-12-03 08:15:46",
      "is_mobile": 0,
      "is_corp": 0,
      "is_eco": 1,
      "loyalty_id": 1,
      "loyalty_fillials_id": 4,
      "additional": "<a href=\"https://adpaysme.s3.eu-central-1.amazonaws.com/banners/flyer/qSGWpqPSz6cuw9hM5FnowmUuVQ9vJhPRp9bMScOQ.png\" target=\"_blank\" class=\"banner-info__link\">Просмотр листовки</a>",
      "creator": {
        "id": 43093,
        "username": "turov@tut.by",
        "activated": 1,
        "permissions": null,
        "last_login": null,
        "first_name": "Сергей",
        "last_name": "Туров",
        "country_id": 3,
        "region_id": 1602269,
        "city_id": 282,
        "is_child": 0,
        "parent_id": 0,
        "birthdate": "1977-11-22 00:00:00",
        "avatar": null,
        "fone_id": null,
        "blocked": 0,
        "created_at": "2017-07-11 05:42:00",
        "updated_at": "2018-06-12 05:35:47",
        "last_premium": [],
        "last_standart": ["3885", "3887", "3884", "3886", "3895", "3894", "3905", "3904", "3918", "3917", "3933", "3934", "3947", "4037", "4038", "4045", "4059", "4058", "4082", "4085"],
        "deleted_at": null,
        "age": 41,
        "show_name": "Сергей Туров",
        "region_view": "Беларусь, Минская область, Минск"
      },
      "real_width": 425,
      "user": {
        "id": 43093,
        "username": "turov@tut.by",
        "activated": 1,
        "permissions": null,
        "last_login": null,
        "first_name": "Сергей",
        "last_name": "Туров",
        "country_id": 3,
        "region_id": 1602269,
        "city_id": 282,
        "is_child": 0,
        "parent_id": 0,
        "birthdate": "1977-11-22 00:00:00",
        "avatar": null,
        "fone_id": null,
        "blocked": 0,
        "created_at": "2017-07-11 05:42:00",
        "updated_at": "2018-06-12 05:35:47",
        "last_premium": [],
        "last_standart": ["3885", "3887", "3884", "3886", "3895", "3894", "3905", "3904", "3918", "3917", "3933", "3934", "3947", "4037", "4038", "4045", "4059", "4058", "4082", "4085"],
        "deleted_at": null,
        "age": 41,
        "show_name": "Сергей Туров",
        "region_view": "Беларусь, Минская область, Минск"
      }
    }
  }],
  "2018-10-19": [{
    "expand": false,
    "id": 9685962,
    "id_user": 4,
    "id_banner": 4108,
    "shown": "2018-10-19 11:29:10",
    "shown_more": "2018-10-19 11:29:14",
    "is_show": 1,
    "is_more_show": 1,
    "created_at": null,
    "updated_at": "2018-10-19 11:29:14",
    "banner": {
      "id": 4108,
      "name": "хд19.10",
      "id_user": 1,
      "id_corp_user": null,
      "type": "G",
      "link": "https://adpaysme.s3.eu-central-1.amazonaws.com/banners/flyer/yHJj1609j5FhKEZOSxSwz5IPNUPRD0vLiQzP8rQu.png",
      "props": "a:4:{s:9:\"arRegions\";a:1:{s:4:\"plus\";a:1:{i:0;a:1:{s:7:\"country\";i:3;}}}s:6:\"arAges\";a:2:{s:4:\"plus\";a:0:{}s:5:\"minus\";a:0:{}}s:12:\"arProperties\";a:2:{s:4:\"plus\";a:1:{i:17;a:1:{i:0;i:1;}}s:5:\"minus\";a:0:{}}s:11:\"arInterests\";a:2:{s:4:\"plus\";a:0:{}s:5:\"minus\";a:0:{}}}",
      "date_start": "2018-10-19",
      "date_end": null,
      "money": 7575,
      "money_start": 8135,
      "priority": "N",
      "img": "https://adpaysme.s3.eu-central-1.amazonaws.com/banners/banners/p7JWlNKAIz4ESbtWMf2cIzP5oGI5ycCV345PQPSK.png",
      "status": "Y",
      "text": "",
      "size": "P",
      "is_pay": "Y",
      "img_text": "",
      "lang": "ru",
      "moderator_id": null,
      "pay_type": "1",
      "rework_reason": "",
      "created_at": "2018-10-19 11:26:17",
      "updated_at": "2019-02-04 05:47:58",
      "is_mobile": 0,
      "is_corp": 0,
      "is_eco": 0,
      "loyalty_id": null,
      "loyalty_fillials_id": null,
      "additional": "<a href=\"https://adpaysme.s3.eu-central-1.amazonaws.com/banners/flyer/yHJj1609j5FhKEZOSxSwz5IPNUPRD0vLiQzP8rQu.png\" target=\"_blank\" class=\"banner-info__link\">Просмотр листовки</a>",
      "creator": {
        "id": 1,
        "username": "glebofon72@gmail.com",
        "activated": 1,
        "permissions": "a:1:{i:0;s:5:\"admin\";}",
        "last_login": null,
        "first_name": "Evgene",
        "last_name": "Glebov",
        "country_id": 3,
        "region_id": 1602269,
        "city_id": 282,
        "is_child": 0,
        "parent_id": 0,
        "birthdate": "1972-06-08 00:00:00",
        "avatar": "https://adpaysme.s3.eu-central-1.amazonaws.com/avatars/1/bac0ea8893b9a8ad832b47851d5163a0.jpeg",
        "fone_id": null,
        "blocked": 0,
        "created_at": "2014-09-15 07:00:00",
        "updated_at": "2018-07-04 12:12:37",
        "last_premium": [],
        "last_standart": ["3885", "3884", "3890", "3898", "3900", "3904", "3899", "3905", "3914", "3918", "3924", "3931", "3911", "3917", "3930", "3952", "3954", "3962", "3974", "3980", "3943", "3947", "3955", "3975", "3979", "4038", "4041", "4042", "4045", "4059", "4082"],
        "deleted_at": null,
        "age": 47,
        "show_name": "Evgene Glebov",
        "region_view": "Беларусь, Минская область, Минск"
      },
      "real_width": 425,
      "user": {
        "id": 1,
        "username": "glebofon72@gmail.com",
        "activated": 1,
        "permissions": "a:1:{i:0;s:5:\"admin\";}",
        "last_login": null,
        "first_name": "Evgene",
        "last_name": "Glebov",
        "country_id": 3,
        "region_id": 1602269,
        "city_id": 282,
        "is_child": 0,
        "parent_id": 0,
        "birthdate": "1972-06-08 00:00:00",
        "avatar": "https://adpaysme.s3.eu-central-1.amazonaws.com/avatars/1/bac0ea8893b9a8ad832b47851d5163a0.jpeg",
        "fone_id": null,
        "blocked": 0,
        "created_at": "2014-09-15 07:00:00",
        "updated_at": "2018-07-04 12:12:37",
        "last_premium": [],
        "last_standart": ["3885", "3884", "3890", "3898", "3900", "3904", "3899", "3905", "3914", "3918", "3924", "3931", "3911", "3917", "3930", "3952", "3954", "3962", "3974", "3980", "3943", "3947", "3955", "3975", "3979", "4038", "4041", "4042", "4045", "4059", "4082"],
        "deleted_at": null,
        "age": 47,
        "show_name": "Evgene Glebov",
        "region_view": "Беларусь, Минская область, Минск"
      }
    }
  }, {
    "expand": false,
    "id": 9684336,
    "id_user": 4,
    "id_banner": 4107,
    "shown": "2018-10-19 07:50:45",
    "shown_more": "2018-10-19 07:50:49",
    "is_show": 1,
    "is_more_show": 1,
    "created_at": null,
    "updated_at": "2018-10-19 07:50:49",
    "banner": {
      "id": 4107,
      "name": "хоздвор19.10",
      "id_user": 1,
      "id_corp_user": null,
      "type": "G",
      "link": "https://adpaysme.s3.eu-central-1.amazonaws.com/banners/flyer/8zkrzNs3Fe7YELw90f0BGflaF4yBKJLAuYiReq76.png",
      "props": "a:4:{s:9:\"arRegions\";a:1:{s:4:\"plus\";a:1:{i:0;a:1:{s:7:\"country\";i:3;}}}s:6:\"arAges\";a:2:{s:4:\"plus\";a:0:{}s:5:\"minus\";a:0:{}}s:12:\"arProperties\";a:2:{s:4:\"plus\";a:1:{i:17;a:1:{i:0;i:1;}}s:5:\"minus\";a:0:{}}s:11:\"arInterests\";a:2:{s:4:\"plus\";a:0:{}s:5:\"minus\";a:0:{}}}",
      "date_start": "2018-10-19",
      "date_end": null,
      "money": 0,
      "money_start": 8130,
      "priority": "N",
      "img": "https://adpaysme.s3.eu-central-1.amazonaws.com/banners/banners/DqtPhvOYDgybDWqAc6FloQfyimM10ZB1DrWZCQbZ.png",
      "status": "S",
      "text": "",
      "size": "P",
      "is_pay": "Y",
      "img_text": "",
      "lang": "ru",
      "moderator_id": null,
      "pay_type": "1",
      "rework_reason": "",
      "created_at": "2018-10-19 07:11:44",
      "updated_at": "2018-10-19 11:24:25",
      "is_mobile": 0,
      "is_corp": 0,
      "is_eco": 0,
      "loyalty_id": null,
      "loyalty_fillials_id": null,
      "additional": "<a href=\"https://adpaysme.s3.eu-central-1.amazonaws.com/banners/flyer/8zkrzNs3Fe7YELw90f0BGflaF4yBKJLAuYiReq76.png\" target=\"_blank\" class=\"banner-info__link\">Просмотр листовки</a>",
      "creator": {
        "id": 1,
        "username": "glebofon72@gmail.com",
        "activated": 1,
        "permissions": "a:1:{i:0;s:5:\"admin\";}",
        "last_login": null,
        "first_name": "Evgene",
        "last_name": "Glebov",
        "country_id": 3,
        "region_id": 1602269,
        "city_id": 282,
        "is_child": 0,
        "parent_id": 0,
        "birthdate": "1972-06-08 00:00:00",
        "avatar": "https://adpaysme.s3.eu-central-1.amazonaws.com/avatars/1/bac0ea8893b9a8ad832b47851d5163a0.jpeg",
        "fone_id": null,
        "blocked": 0,
        "created_at": "2014-09-15 07:00:00",
        "updated_at": "2018-07-04 12:12:37",
        "last_premium": [],
        "last_standart": ["3885", "3884", "3890", "3898", "3900", "3904", "3899", "3905", "3914", "3918", "3924", "3931", "3911", "3917", "3930", "3952", "3954", "3962", "3974", "3980", "3943", "3947", "3955", "3975", "3979", "4038", "4041", "4042", "4045", "4059", "4082"],
        "deleted_at": null,
        "age": 47,
        "show_name": "Evgene Glebov",
        "region_view": "Беларусь, Минская область, Минск"
      },
      "real_width": 425,
      "user": {
        "id": 1,
        "username": "glebofon72@gmail.com",
        "activated": 1,
        "permissions": "a:1:{i:0;s:5:\"admin\";}",
        "last_login": null,
        "first_name": "Evgene",
        "last_name": "Glebov",
        "country_id": 3,
        "region_id": 1602269,
        "city_id": 282,
        "is_child": 0,
        "parent_id": 0,
        "birthdate": "1972-06-08 00:00:00",
        "avatar": "https://adpaysme.s3.eu-central-1.amazonaws.com/avatars/1/bac0ea8893b9a8ad832b47851d5163a0.jpeg",
        "fone_id": null,
        "blocked": 0,
        "created_at": "2014-09-15 07:00:00",
        "updated_at": "2018-07-04 12:12:37",
        "last_premium": [],
        "last_standart": ["3885", "3884", "3890", "3898", "3900", "3904", "3899", "3905", "3914", "3918", "3924", "3931", "3911", "3917", "3930", "3952", "3954", "3962", "3974", "3980", "3943", "3947", "3955", "3975", "3979", "4038", "4041", "4042", "4045", "4059", "4082"],
        "deleted_at": null,
        "age": 47,
        "show_name": "Evgene Glebov",
        "region_view": "Беларусь, Минская область, Минск"
      }
    }
  }],
  "2018-09-21": [{
    "expand": false,
    "id": 9678313,
    "id_user": 4,
    "id_banner": 4104,
    "shown": "2018-09-21 15:32:10",
    "shown_more": "2018-09-21 15:32:26",
    "is_show": 1,
    "is_more_show": 1,
    "created_at": null,
    "updated_at": "2018-09-21 15:32:26",
    "banner": {
      "id": 4104,
      "name": "Скидки-2",
      "id_user": 43093,
      "id_corp_user": null,
      "type": "G",
      "link": "https://adpaysme.s3.eu-central-1.amazonaws.com/banners/flyer/Mjk2vE2fTPAx4TMa2GuoH4WGnMMYG41gUoVXTIVG.jpeg",
      "props": "a:4:{s:9:\"arRegions\";a:0:{}s:6:\"arAges\";a:2:{s:4:\"plus\";a:0:{}s:5:\"minus\";a:0:{}}s:12:\"arProperties\";a:2:{s:4:\"plus\";a:0:{}s:5:\"minus\";a:0:{}}s:11:\"arInterests\";a:2:{s:4:\"plus\";a:0:{}s:5:\"minus\";a:0:{}}}",
      "date_start": "2018-09-21",
      "date_end": null,
      "money": 0,
      "money_start": 0,
      "priority": "N",
      "img": "https://adpaysme.s3.eu-central-1.amazonaws.com/banners/banners/Zi8Bpu6ACNo5RbofQXIXD7yqpEjs1CX6wUT5s3e5.png",
      "status": "S",
      "text": "",
      "size": "S",
      "is_pay": "Y",
      "img_text": "",
      "lang": "ru",
      "moderator_id": null,
      "pay_type": "1",
      "rework_reason": "",
      "created_at": "2018-09-21 10:36:10",
      "updated_at": "2018-10-24 09:11:12",
      "is_mobile": 0,
      "is_corp": 0,
      "is_eco": 1,
      "loyalty_id": 1,
      "loyalty_fillials_id": 1,
      "additional": "<a href=\"https://adpaysme.s3.eu-central-1.amazonaws.com/banners/flyer/Mjk2vE2fTPAx4TMa2GuoH4WGnMMYG41gUoVXTIVG.jpeg\" target=\"_blank\" class=\"banner-info__link\">Просмотр листовки</a>",
      "creator": {
        "id": 43093,
        "username": "turov@tut.by",
        "activated": 1,
        "permissions": null,
        "last_login": null,
        "first_name": "Сергей",
        "last_name": "Туров",
        "country_id": 3,
        "region_id": 1602269,
        "city_id": 282,
        "is_child": 0,
        "parent_id": 0,
        "birthdate": "1977-11-22 00:00:00",
        "avatar": null,
        "fone_id": null,
        "blocked": 0,
        "created_at": "2017-07-11 05:42:00",
        "updated_at": "2018-06-12 05:35:47",
        "last_premium": [],
        "last_standart": ["3885", "3887", "3884", "3886", "3895", "3894", "3905", "3904", "3918", "3917", "3933", "3934", "3947", "4037", "4038", "4045", "4059", "4058", "4082", "4085"],
        "deleted_at": null,
        "age": 41,
        "show_name": "Сергей Туров",
        "region_view": "Беларусь, Минская область, Минск"
      },
      "real_width": 425,
      "user": {
        "id": 43093,
        "username": "turov@tut.by",
        "activated": 1,
        "permissions": null,
        "last_login": null,
        "first_name": "Сергей",
        "last_name": "Туров",
        "country_id": 3,
        "region_id": 1602269,
        "city_id": 282,
        "is_child": 0,
        "parent_id": 0,
        "birthdate": "1977-11-22 00:00:00",
        "avatar": null,
        "fone_id": null,
        "blocked": 0,
        "created_at": "2017-07-11 05:42:00",
        "updated_at": "2018-06-12 05:35:47",
        "last_premium": [],
        "last_standart": ["3885", "3887", "3884", "3886", "3895", "3894", "3905", "3904", "3918", "3917", "3933", "3934", "3947", "4037", "4038", "4045", "4059", "4058", "4082", "4085"],
        "deleted_at": null,
        "age": 41,
        "show_name": "Сергей Туров",
        "region_view": "Беларусь, Минская область, Минск"
      }
    }
  }, {
    "expand": false,
    "id": 9674119,
    "id_user": 4,
    "id_banner": 4101,
    "shown": "2018-09-21 10:12:35",
    "shown_more": "2018-09-21 10:13:04",
    "is_show": 1,
    "is_more_show": 1,
    "created_at": null,
    "updated_at": "2018-09-21 10:13:04",
    "banner": {
      "id": 4101,
      "name": "Скидки-2",
      "id_user": 43093,
      "id_corp_user": null,
      "type": "G",
      "link": "https://adpaysme.s3.eu-central-1.amazonaws.com/banners/flyer/s270SRHDxb30SmLN162dUubGChhT26O64o9NoZb6.jpeg",
      "props": "a:4:{s:9:\"arRegions\";a:0:{}s:6:\"arAges\";a:2:{s:4:\"plus\";a:0:{}s:5:\"minus\";a:0:{}}s:12:\"arProperties\";a:2:{s:4:\"plus\";a:0:{}s:5:\"minus\";a:0:{}}s:11:\"arInterests\";a:2:{s:4:\"plus\";a:0:{}s:5:\"minus\";a:0:{}}}",
      "date_start": "2018-09-21",
      "date_end": null,
      "money": 0,
      "money_start": 0,
      "priority": "N",
      "img": "https://adpaysme.s3.eu-central-1.amazonaws.com/banners/banners/aOx6xEBRODUADyOt217oKPnqKo0unakXgAvX1hG6.png",
      "status": "S",
      "text": "",
      "size": "S",
      "is_pay": "Y",
      "img_text": "",
      "lang": "ru",
      "moderator_id": null,
      "pay_type": "1",
      "rework_reason": "",
      "created_at": "2018-09-21 10:12:19",
      "updated_at": "2018-09-21 10:34:26",
      "is_mobile": 0,
      "is_corp": 0,
      "is_eco": 1,
      "loyalty_id": 1,
      "loyalty_fillials_id": 1,
      "additional": "<a href=\"https://adpaysme.s3.eu-central-1.amazonaws.com/banners/flyer/s270SRHDxb30SmLN162dUubGChhT26O64o9NoZb6.jpeg\" target=\"_blank\" class=\"banner-info__link\">Просмотр листовки</a>",
      "creator": {
        "id": 43093,
        "username": "turov@tut.by",
        "activated": 1,
        "permissions": null,
        "last_login": null,
        "first_name": "Сергей",
        "last_name": "Туров",
        "country_id": 3,
        "region_id": 1602269,
        "city_id": 282,
        "is_child": 0,
        "parent_id": 0,
        "birthdate": "1977-11-22 00:00:00",
        "avatar": null,
        "fone_id": null,
        "blocked": 0,
        "created_at": "2017-07-11 05:42:00",
        "updated_at": "2018-06-12 05:35:47",
        "last_premium": [],
        "last_standart": ["3885", "3887", "3884", "3886", "3895", "3894", "3905", "3904", "3918", "3917", "3933", "3934", "3947", "4037", "4038", "4045", "4059", "4058", "4082", "4085"],
        "deleted_at": null,
        "age": 41,
        "show_name": "Сергей Туров",
        "region_view": "Беларусь, Минская область, Минск"
      },
      "real_width": 425,
      "user": {
        "id": 43093,
        "username": "turov@tut.by",
        "activated": 1,
        "permissions": null,
        "last_login": null,
        "first_name": "Сергей",
        "last_name": "Туров",
        "country_id": 3,
        "region_id": 1602269,
        "city_id": 282,
        "is_child": 0,
        "parent_id": 0,
        "birthdate": "1977-11-22 00:00:00",
        "avatar": null,
        "fone_id": null,
        "blocked": 0,
        "created_at": "2017-07-11 05:42:00",
        "updated_at": "2018-06-12 05:35:47",
        "last_premium": [],
        "last_standart": ["3885", "3887", "3884", "3886", "3895", "3894", "3905", "3904", "3918", "3917", "3933", "3934", "3947", "4037", "4038", "4045", "4059", "4058", "4082", "4085"],
        "deleted_at": null,
        "age": 41,
        "show_name": "Сергей Туров",
        "region_view": "Беларусь, Минская область, Минск"
      }
    }
  }],
  "2018-07-24": [{
    "expand": false,
    "id": 9670035,
    "id_user": 4,
    "id_banner": 4092,
    "shown": "2018-07-24 10:53:21",
    "shown_more": null,
    "is_show": 1,
    "is_more_show": 0,
    "created_at": null,
    "updated_at": "2018-07-24 10:53:21",
    "banner": {
      "id": 4092,
      "name": "test",
      "id_user": 4,
      "id_corp_user": null,
      "type": "B",
      "link": " ",
      "props": "a:6:{s:9:\"arRegions\";a:2:{s:4:\"plus\";a:1:{i:0;a:2:{s:4:\"city\";s:7:\"2709508\";s:7:\"country\";s:2:\"13\";}}s:5:\"minus\";a:0:{}}s:6:\"arAges\";a:2:{s:4:\"plus\";a:0:{}s:5:\"minus\";a:0:{}}s:12:\"arProperties\";a:2:{s:4:\"plus\";a:0:{}s:5:\"minus\";a:0:{}}s:11:\"arInterests\";a:2:{s:4:\"plus\";a:0:{}s:5:\"minus\";a:0:{}}s:12:\"arBirthdates\";b:0;s:10:\"arRegister\";a:2:{s:5:\"start\";b:0;s:3:\"end\";b:0;}}",
      "date_start": "2018-07-24",
      "date_end": "2019-07-24",
      "money": 0,
      "money_start": 15,
      "priority": "N",
      "img": "https://adpaysme.s3.eu-central-1.amazonaws.com/banners/banners/TpBGJ0WtqrX7zZxkuNwE2xPCKg30PXktTZcmE9t2.jpeg",
      "status": "S",
      "text": null,
      "size": "S",
      "is_pay": "Y",
      "img_text": " ",
      "lang": "ru",
      "moderator_id": 1,
      "pay_type": "1",
      "rework_reason": "12",
      "created_at": "2018-07-24 10:53:02",
      "updated_at": "2018-07-24 13:04:09",
      "is_mobile": 0,
      "is_corp": 0,
      "is_eco": 0,
      "loyalty_id": null,
      "loyalty_fillials_id": null,
      "additional": "Без функций",
      "creator": {
        "id": 4,
        "username": "bioforce985@gmail.com",
        "activated": 1,
        "permissions": "a:5:{i:0;s:5:\"admin\";i:1;s:9:\"pay_admin\";i:2;s:14:\"helps_moderate\";i:3;s:11:\"helps_admin\";i:4;s:15:\"content_manager\";}",
        "last_login": null,
        "first_name": "Александр",
        "last_name": "Поганько",
        "country_id": 3,
        "region_id": 1602269,
        "city_id": 282,
        "is_child": 0,
        "parent_id": 0,
        "birthdate": "1985-02-12 00:00:00",
        "avatar": "https://adpaysme.s3.eu-central-1.amazonaws.com/avatars/4/667b8abf152ea516a21dc2538a62af50.jpg",
        "fone_id": null,
        "blocked": 0,
        "created_at": "2014-09-15 07:00:00",
        "updated_at": "2018-10-11 09:23:51",
        "last_premium": [],
        "last_standart": ["4090", "4091", "4092"],
        "deleted_at": null,
        "age": 34,
        "show_name": "Александр Поганько",
        "region_view": "Беларусь, Минская область, Минск"
      },
      "real_width": 425,
      "user": {
        "id": 4,
        "username": "bioforce985@gmail.com",
        "activated": 1,
        "permissions": "a:5:{i:0;s:5:\"admin\";i:1;s:9:\"pay_admin\";i:2;s:14:\"helps_moderate\";i:3;s:11:\"helps_admin\";i:4;s:15:\"content_manager\";}",
        "last_login": null,
        "first_name": "Александр",
        "last_name": "Поганько",
        "country_id": 3,
        "region_id": 1602269,
        "city_id": 282,
        "is_child": 0,
        "parent_id": 0,
        "birthdate": "1985-02-12 00:00:00",
        "avatar": "https://adpaysme.s3.eu-central-1.amazonaws.com/avatars/4/667b8abf152ea516a21dc2538a62af50.jpg",
        "fone_id": null,
        "blocked": 0,
        "created_at": "2014-09-15 07:00:00",
        "updated_at": "2018-10-11 09:23:51",
        "last_premium": [],
        "last_standart": ["4090", "4091", "4092"],
        "deleted_at": null,
        "age": 34,
        "show_name": "Александр Поганько",
        "region_view": "Беларусь, Минская область, Минск"
      }
    }
  }, {
    "expand": false,
    "id": 9670020,
    "id_user": 4,
    "id_banner": 4091,
    "shown": "2018-07-24 10:53:20",
    "shown_more": "2018-07-24 10:53:35",
    "is_show": 1,
    "is_more_show": 1,
    "created_at": null,
    "updated_at": "2018-07-24 10:53:35",
    "banner": {
      "id": 4091,
      "name": "test2",
      "id_user": 4,
      "id_corp_user": null,
      "type": "U",
      "link": " ",
      "props": "a:6:{s:9:\"arRegions\";a:2:{s:4:\"plus\";a:1:{i:0;a:2:{s:4:\"city\";s:7:\"2709508\";s:7:\"country\";s:2:\"13\";}}s:5:\"minus\";a:0:{}}s:6:\"arAges\";a:2:{s:4:\"plus\";a:0:{}s:5:\"minus\";a:0:{}}s:12:\"arProperties\";a:2:{s:4:\"plus\";a:0:{}s:5:\"minus\";a:0:{}}s:11:\"arInterests\";a:2:{s:4:\"plus\";a:0:{}s:5:\"minus\";a:0:{}}s:12:\"arBirthdates\";b:0;s:10:\"arRegister\";a:2:{s:5:\"start\";b:0;s:3:\"end\";b:0;}}",
      "date_start": "2018-07-24",
      "date_end": "2019-07-24",
      "money": 0,
      "money_start": 15,
      "priority": "N",
      "img": "https://adpaysme.s3.eu-central-1.amazonaws.com/banners/banners/EhXgIUR0fiw87c33E0TisYkKtLc9ROtdlGgOfmlw.jpeg",
      "status": "S",
      "text": "TTTTTT\r\nTTTTTTT\r\nTTTTTTTT",
      "size": "S",
      "is_pay": "Y",
      "img_text": " ",
      "lang": "ru",
      "moderator_id": 1,
      "pay_type": "1",
      "rework_reason": "12",
      "created_at": "2018-07-24 10:52:31",
      "updated_at": "2018-07-24 13:04:11",
      "is_mobile": 0,
      "is_corp": 0,
      "is_eco": 0,
      "loyalty_id": null,
      "loyalty_fillials_id": null,
      "additional": "Без функций",
      "creator": {
        "id": 4,
        "username": "bioforce985@gmail.com",
        "activated": 1,
        "permissions": "a:5:{i:0;s:5:\"admin\";i:1;s:9:\"pay_admin\";i:2;s:14:\"helps_moderate\";i:3;s:11:\"helps_admin\";i:4;s:15:\"content_manager\";}",
        "last_login": null,
        "first_name": "Александр",
        "last_name": "Поганько",
        "country_id": 3,
        "region_id": 1602269,
        "city_id": 282,
        "is_child": 0,
        "parent_id": 0,
        "birthdate": "1985-02-12 00:00:00",
        "avatar": "https://adpaysme.s3.eu-central-1.amazonaws.com/avatars/4/667b8abf152ea516a21dc2538a62af50.jpg",
        "fone_id": null,
        "blocked": 0,
        "created_at": "2014-09-15 07:00:00",
        "updated_at": "2018-10-11 09:23:51",
        "last_premium": [],
        "last_standart": ["4090", "4091", "4092"],
        "deleted_at": null,
        "age": 34,
        "show_name": "Александр Поганько",
        "region_view": "Беларусь, Минская область, Минск"
      },
      "real_width": 425,
      "user": {
        "id": 4,
        "username": "bioforce985@gmail.com",
        "activated": 1,
        "permissions": "a:5:{i:0;s:5:\"admin\";i:1;s:9:\"pay_admin\";i:2;s:14:\"helps_moderate\";i:3;s:11:\"helps_admin\";i:4;s:15:\"content_manager\";}",
        "last_login": null,
        "first_name": "Александр",
        "last_name": "Поганько",
        "country_id": 3,
        "region_id": 1602269,
        "city_id": 282,
        "is_child": 0,
        "parent_id": 0,
        "birthdate": "1985-02-12 00:00:00",
        "avatar": "https://adpaysme.s3.eu-central-1.amazonaws.com/avatars/4/667b8abf152ea516a21dc2538a62af50.jpg",
        "fone_id": null,
        "blocked": 0,
        "created_at": "2014-09-15 07:00:00",
        "updated_at": "2018-10-11 09:23:51",
        "last_premium": [],
        "last_standart": ["4090", "4091", "4092"],
        "deleted_at": null,
        "age": 34,
        "show_name": "Александр Поганько",
        "region_view": "Беларусь, Минская область, Минск"
      }
    }
  }, {
    "expand": false,
    "id": 9670005,
    "id_user": 4,
    "id_banner": 4090,
    "shown": "2018-07-24 10:53:19",
    "shown_more": "2018-07-24 10:53:37",
    "is_show": 1,
    "is_more_show": 1,
    "created_at": null,
    "updated_at": "2018-07-24 10:53:37",
    "banner": {
      "id": 4090,
      "name": "test1",
      "id_user": 4,
      "id_corp_user": null,
      "type": "G",
      "link": "https://adpaysme.s3.eu-central-1.amazonaws.com/banners/flyer/gVtMtKdZvQz9ADgXQigQmv8HU8fiizkFXXK5LysH.jpeg",
      "props": "a:6:{s:9:\"arRegions\";a:2:{s:4:\"plus\";a:1:{i:0;a:2:{s:4:\"city\";s:7:\"2709508\";s:7:\"country\";s:2:\"13\";}}s:5:\"minus\";a:0:{}}s:6:\"arAges\";a:2:{s:4:\"plus\";a:0:{}s:5:\"minus\";a:0:{}}s:12:\"arProperties\";a:2:{s:4:\"plus\";a:0:{}s:5:\"minus\";a:0:{}}s:11:\"arInterests\";a:2:{s:4:\"plus\";a:0:{}s:5:\"minus\";a:0:{}}s:12:\"arBirthdates\";b:0;s:10:\"arRegister\";a:2:{s:5:\"start\";b:0;s:3:\"end\";b:0;}}",
      "date_start": "2018-07-24",
      "date_end": "2019-07-24",
      "money": 0,
      "money_start": 30,
      "priority": "N",
      "img": "https://adpaysme.s3.eu-central-1.amazonaws.com/banners/banners/Yw2lWUr7V4KSczBhROREvfic5iKg5Xw9sK0skbxA.jpeg",
      "status": "S",
      "text": null,
      "size": "S",
      "is_pay": "Y",
      "img_text": " ",
      "lang": "ru",
      "moderator_id": 1,
      "pay_type": "1",
      "rework_reason": "12",
      "created_at": "2018-07-24 10:51:56",
      "updated_at": "2018-07-24 13:04:13",
      "is_mobile": 0,
      "is_corp": 0,
      "is_eco": 0,
      "loyalty_id": null,
      "loyalty_fillials_id": null,
      "additional": "<a href=\"https://adpaysme.s3.eu-central-1.amazonaws.com/banners/flyer/gVtMtKdZvQz9ADgXQigQmv8HU8fiizkFXXK5LysH.jpeg\" target=\"_blank\" class=\"banner-info__link\">Просмотр листовки</a>",
      "creator": {
        "id": 4,
        "username": "bioforce985@gmail.com",
        "activated": 1,
        "permissions": "a:5:{i:0;s:5:\"admin\";i:1;s:9:\"pay_admin\";i:2;s:14:\"helps_moderate\";i:3;s:11:\"helps_admin\";i:4;s:15:\"content_manager\";}",
        "last_login": null,
        "first_name": "Александр",
        "last_name": "Поганько",
        "country_id": 3,
        "region_id": 1602269,
        "city_id": 282,
        "is_child": 0,
        "parent_id": 0,
        "birthdate": "1985-02-12 00:00:00",
        "avatar": "https://adpaysme.s3.eu-central-1.amazonaws.com/avatars/4/667b8abf152ea516a21dc2538a62af50.jpg",
        "fone_id": null,
        "blocked": 0,
        "created_at": "2014-09-15 07:00:00",
        "updated_at": "2018-10-11 09:23:51",
        "last_premium": [],
        "last_standart": ["4090", "4091", "4092"],
        "deleted_at": null,
        "age": 34,
        "show_name": "Александр Поганько",
        "region_view": "Беларусь, Минская область, Минск"
      },
      "real_width": 425,
      "user": {
        "id": 4,
        "username": "bioforce985@gmail.com",
        "activated": 1,
        "permissions": "a:5:{i:0;s:5:\"admin\";i:1;s:9:\"pay_admin\";i:2;s:14:\"helps_moderate\";i:3;s:11:\"helps_admin\";i:4;s:15:\"content_manager\";}",
        "last_login": null,
        "first_name": "Александр",
        "last_name": "Поганько",
        "country_id": 3,
        "region_id": 1602269,
        "city_id": 282,
        "is_child": 0,
        "parent_id": 0,
        "birthdate": "1985-02-12 00:00:00",
        "avatar": "https://adpaysme.s3.eu-central-1.amazonaws.com/avatars/4/667b8abf152ea516a21dc2538a62af50.jpg",
        "fone_id": null,
        "blocked": 0,
        "created_at": "2014-09-15 07:00:00",
        "updated_at": "2018-10-11 09:23:51",
        "last_premium": [],
        "last_standart": ["4090", "4091", "4092"],
        "deleted_at": null,
        "age": 34,
        "show_name": "Александр Поганько",
        "region_view": "Беларусь, Минская область, Минск"
      }
    }
  }]
}