<?xml version="1.0" encoding="utf-8"?>
<!-- Generator: Adobe Illustrator 18.0.0, SVG Export Plug-In . SVG Version: 6.00 Build 0)  -->
<!DOCTYPE svg PUBLIC "-//W3C//DTD SVG 1.1//EN" "http://www.w3.org/Graphics/SVG/1.1/DTD/svg11.dtd">
<svg version="1.1" id="Layer_1" xmlns="http://www.w3.org/2000/svg" xmlns:xlink="http://www.w3.org/1999/xlink" x="0px" y="0px"
	 viewBox="0 0 240 240" enable-background="new 0 0 240 240" xml:space="preserve">
<g>
	<path fill="#FFFFFF" d="M58.2,164.2h131.9c5.2,0,9.4-4.3,9.4-9.4V82.5c0-5.2-4.3-9.4-9.4-9.4H58.2c-5.2,0-9.4,4.3-9.4,9.4v72.2
		C48.7,159.9,53,164.2,58.2,164.2z M190.1,161.1H58.2c-3.7,0-6.4-2.7-6.4-6.4v-48.4h145v48.4C196.8,158.4,193.7,161.1,190.1,161.1z
		 M58.2,76.1h131.9c3.7,0,6.4,2.7,6.4,6.4v20.7H51.8V82.5C51.8,78.9,54.5,76.1,58.2,76.1z"/>
	<path fill="#FFFFFF" d="M41.1,117.3v43.6c0,5.2,4.3,9.4,9.4,9.4h7.9l-4.3,13.4h7.3l9.1-13.4h104.8l9.1,13.4h7.3l-4.6-13.1h10.4
		c5.2,0,9.4-4.3,9.4-9.4v-43.9c3-0.3,5.8-2.7,5.8-6.1V82.2c0-3.4-2.4-5.8-5.8-6.1v-1.8c0-5.2-4.3-9.4-9.4-9.4h-18v-2.4
		c0-1.2-0.9-2.1-2.1-2.1h-21.6c-1.2,0-2.1,0.9-2.1,2.1v2.4h-2.1v-2.4c0-1.2-0.9-2.1-2.1-2.1h-6.4c-1.2,0-2.1,0.9-2.1,2.1v2.4h-1.8
		v-2.4c0-1.2-0.9-2.1-2.1-2.1H131c-1.2,0-2.1,0.9-2.1,2.1v2.4h-1.5v-2.4c0-1.2-0.9-2.1-2.1-2.1h-6.4c-1.2,0-2.1,0.9-2.1,2.1v2.4
		h-2.4v-2.4c0-1.2-0.9-2.1-2.1-2.1h-6.4c-1.2,0-2.1,0.9-2.1,2.1v2.4H84.1v-0.3c0-3.7-2.4-6.7-5.8-7.6L148,32.3
		c0.9-0.3,1.2-1.2,0.9-1.8c-0.3-0.9-1.2-1.2-1.8-0.9L70.7,56.6c0,0-0.3,0-0.3,0.3H67c-4.3,0-7.9,3.7-7.9,7.9v0.3h-8.5
		c-5.2,0-9.4,4.3-9.4,9.4v1.5c-3,0.3-5.8,2.7-5.8,6.1v29.2C35.3,114.5,38.1,117,41.1,117.3z M59.7,180.6h-1.5l3.4-10.4h5.2
		L59.7,180.6z M187.3,180.6h-1.5l-6.7-10.1h5.2L187.3,180.6z M209.8,82.2v29.2c0,1.5-1.2,2.7-2.7,3V79.2
		C208.6,79.2,209.8,80.4,209.8,82.2z M157.2,63.4h19.5v1.2h-19.8v-1.2H157.2z M144.4,63.4h4.6v1.2h-4.6V63.4z M131.9,63.4h4.6v1.2
		h-4.6V63.4z M120,63.4h4.6v1.2H120V63.4z M106.9,63.4h4.6v1.2h-4.6V63.4z M62.1,64.3c0-2.7,2.1-4.9,4.9-4.9h9.1
		c2.7,0,4.9,2.1,4.9,4.9v0.3L62.1,64.3L62.1,64.3z M44.2,74c0-3.7,2.7-6.4,6.4-6.4h8.5h25.3h19.5h10.7h2.4h10.7h1.5h10.7h1.8h10.7
		h2.1h25.3h18c3.7,0,6.4,2.7,6.4,6.4v1.8v41.4v43.6c0,3.7-2.7,6.4-6.4,6.4H50.6c-3.7,0-6.4-2.7-6.4-6.4v-43.6V75.8V74z M38.7,82.2
		c0-1.5,1.2-2.7,2.7-3v35c-1.5-0.3-2.7-1.5-2.7-3V82.2z"/>
	<rect x="58.8" y="109.6" fill="#FFFFFF" width="128.8" height="3"/>
	<rect x="58.8" y="120.9" fill="#FFFFFF" width="128.8" height="3"/>
	<rect x="58.8" y="131.9" fill="#FFFFFF" width="128.8" height="3"/>
	<rect x="58.8" y="142.8" fill="#FFFFFF" width="128.8" height="3"/>
	<rect x="58.8" y="154.1" fill="#FFFFFF" width="128.8" height="3"/>
	<path fill="#FFFFFF" d="M69.7,99.3c5.8,0,10.7-4.9,10.7-10.7c0-5.8-4.9-10.7-10.7-10.7s-10.7,4.9-10.7,10.7
		C59.1,94.4,64,99.3,69.7,99.3z M69.7,81c4.3,0,7.6,3.4,7.6,7.6c0,4.3-3.4,7.6-7.6,7.6c-4.3,0-7.6-3.4-7.6-7.6
		C62.1,84.4,65.5,81,69.7,81z"/>
	<path fill="#FFFFFF" d="M69.7,94.7c3.4,0,5.8-2.7,5.8-5.8s-2.7-5.8-5.8-5.8S64,85.3,64,88.6C64,92,66.4,94.7,69.7,94.7z M69.7,85.9
		c1.5,0,2.7,1.2,2.7,2.7s-1.2,2.7-2.7,2.7S67,90.2,67,88.6S68.2,85.9,69.7,85.9z"/>
	<path fill="#FFFFFF" d="M178.5,94.7c3.4,0,5.8-2.7,5.8-5.8s-2.7-5.8-5.8-5.8s-5.8,2.7-5.8,5.8S175.1,94.7,178.5,94.7z M178.5,85.9
		c1.5,0,2.7,1.2,2.7,2.7s-1.2,2.7-2.7,2.7s-2.7-1.2-2.7-2.7C175.4,87.1,177,85.9,178.5,85.9z"/>
	<path fill="#FFFFFF" d="M178.5,99.3c5.8,0,10.7-4.9,10.7-10.7c0-5.8-4.9-10.7-10.7-10.7s-10.7,4.9-10.7,10.7
		C167.8,94.4,172.7,99.3,178.5,99.3z M178.5,81c4.3,0,7.6,3.4,7.6,7.6c0,4.3-3.4,7.6-7.6,7.6s-7.6-3.4-7.6-7.6
		C170.9,84.4,174.2,81,178.5,81z"/>
	<path fill="#FFFFFF" d="M86.2,90.2h2.4v3.7c0,0.9,0.6,1.5,1.5,1.5s1.5-0.6,1.5-1.5v-3.7h2.4v3.7c0,0.9,0.6,1.5,1.5,1.5
		s1.5-0.6,1.5-1.5v-3.7h2.7v3.7c0,0.9,0.6,1.5,1.5,1.5s1.5-0.6,1.5-1.5v-3.7h3v3.7c0,0.9,0.6,1.5,1.5,1.5s1.5-0.6,1.5-1.5v-3.7h3.7
		v3.7c0,0.9,0.6,1.5,1.5,1.5s1.5-0.6,1.5-1.5v-3.7h3v3.7c0,0.9,0.6,1.5,1.5,1.5s1.5-0.6,1.5-1.5v-3.7h3.7v3.7c0,0.9,0.6,1.5,1.5,1.5
		c0.9,0,1.5-0.6,1.5-1.5v-3.7h3.4v7.9c0,0.9,0.6,1.5,1.5,1.5c0.9,0,1.5-0.6,1.5-1.5v-7.9h4.3v3.7c0,0.9,0.6,1.5,1.5,1.5
		c0.9,0,1.5-0.6,1.5-1.5v-3.7h4v3.7c0,0.9,0.6,1.5,1.5,1.5c0.9,0,1.5-0.6,1.5-1.5v-3.7h3.4v3.7c0,0.9,0.6,1.5,1.5,1.5
		c0.9,0,1.5-0.6,1.5-1.5v-3.7h5.8c0.9,0,1.5-0.6,1.5-1.5c0-0.9-0.6-1.5-1.5-1.5h-5.8v-3.4c0-0.9-0.6-1.5-1.5-1.5
		c-0.9,0-1.5,0.6-1.5,1.5v3.4h-3.4v-3.4c0-0.9-0.6-1.5-1.5-1.5c-0.9,0-1.5,0.6-1.5,1.5v3.4h-3.7v-3.4c0-0.9-0.6-1.5-1.5-1.5
		c-0.9,0-1.5,0.6-1.5,1.5v3.4h-4.3v-7.9c0-0.9-0.6-1.5-1.5-1.5c-0.9,0-1.5,0.6-1.5,1.5v7.9h-3.4v-3.4c0-0.9-0.6-1.5-1.5-1.5
		s-1.5,0.6-1.5,1.5v3.4h-3.7v-3.4c0-0.9-0.6-1.5-1.5-1.5s-1.5,0.6-1.5,1.5v3.4h-3v-3.4c0-0.9-0.6-1.5-1.5-1.5s-1.8,0.6-1.8,1.5v3.4
		h-3.4v-3.4c0-0.9-0.6-1.5-1.5-1.5s-1.5,0.6-1.5,1.5v3.4h-3v-3.4c0-0.9-0.6-1.5-1.5-1.5s-1.5,0.6-1.5,1.5v3.4h-2.7v-3.4
		c0-0.9-0.6-1.5-1.5-1.5s-1.5,0.6-1.5,1.5v3.4H92v-3.4c0-0.9-0.6-1.5-1.5-1.5s-1.5,0.6-1.5,1.5v3.4h-2.4c-0.9,0-1.5,0.6-1.5,1.5
		C85,89.5,85.3,90.2,86.2,90.2z"/>
	<path fill="#FFFFFF" d="M220.5,185.2H33.8c-0.9,0-1.5,0.6-1.5,1.5c0,0.9,0.6,1.5,1.5,1.5h187c0.9,0,1.5-0.6,1.5-1.5
		C222.3,185.8,221.4,185.2,220.5,185.2z"/>
	<path fill="#FFFFFF" d="M212.6,193.7H54.5c-0.9,0-1.5,0.6-1.5,1.5c0,0.9,0.6,1.5,1.5,1.5h158.1c0.9,0,1.5-0.6,1.5-1.5
		C214.1,194.3,213.5,193.7,212.6,193.7z"/>
	<path fill="#FFFFFF" d="M199.5,202.8H41.4c-0.9,0-1.5,0.6-1.5,1.5c0,0.9,0.6,1.5,1.5,1.5h158.1c0.9,0,1.5-0.6,1.5-1.5
		C201,203.5,200.4,202.8,199.5,202.8z"/>
</g>
</svg>
