<?xml version="1.0" encoding="utf-8"?>
<!-- Generator: Adobe Illustrator 18.0.0, SVG Export Plug-In . SVG Version: 6.00 Build 0)  -->
<!DOCTYPE svg PUBLIC "-//W3C//DTD SVG 1.1//EN" "http://www.w3.org/Graphics/SVG/1.1/DTD/svg11.dtd">
<svg version="1.1" id="Layer_1" xmlns="http://www.w3.org/2000/svg" xmlns:xlink="http://www.w3.org/1999/xlink" x="0px" y="0px"
	 viewBox="0 0 240 240" enable-background="new 0 0 240 240" xml:space="preserve">
<g>
	<path fill="#FFFFFF" d="M76.4,31.1h18.9c1.2,0,2.1-0.9,2.1-2.1v-4.6c0-1.2-0.9-2.1-2.1-2.1H76.4c-1.2,0-2.1,0.9-2.1,2.1v4.6
		C74.3,29.8,75.2,31.1,76.4,31.1z M77.4,25h17.1v3H77.1v-3H77.4z"/>
	<path fill="#FFFFFF" d="M73.7,84.1c-5.2,0-9.1,4.3-9.1,9.1c0,5.2,4.3,9.1,9.1,9.1c5.2,0,9.1-4.3,9.1-9.1
		C82.8,88,78.6,84.1,73.7,84.1z M73.7,99.6c-3.4,0-6.4-2.7-6.4-6.4c0-3.4,2.7-6.4,6.4-6.4c3.4,0,6.4,2.7,6.4,6.4
		C79.8,96.5,77.1,99.6,73.7,99.6z"/>
	<path fill="#FFFFFF" d="M134.3,110.9c5.2,0,9.1-4.3,9.1-9.1c0-5.2-4.3-9.1-9.1-9.1s-9.1,4.3-9.1,9.1S129.1,110.9,134.3,110.9z
		 M134.3,95.3c3.4,0,6.4,2.7,6.4,6.4c0,3.7-2.7,6.4-6.4,6.4s-6.4-3-6.4-6.4S131,95.3,134.3,95.3z"/>
	<path fill="#FFFFFF" d="M99.6,140.1c-4,0-7,3-7,7v37.5c0,4,3,7,7,7l0,0c4,0,7-3,7-7v-37.5C106.6,143.1,103.6,140.1,99.6,140.1z
		 M103.9,184.6c0,2.4-1.8,4.3-4.3,4.3l0,0c-2.4,0-4.3-1.8-4.3-4.3v-37.5c0-2.4,1.8-4.3,4.3-4.3s4.3,1.8,4.3,4.3V184.6z"/>
	<path fill="#FFFFFF" d="M163.2,197.1l-13.1-7.6v-0.6h30.8c0.9,0,1.5-0.6,1.5-1.5c0-0.9-0.6-1.5-1.5-1.5h-30.8v-3h45.1
		c0.9,0,1.5-0.6,1.5-1.5c0-0.9-0.6-1.5-1.5-1.5h-45.1V152c14.6-1.8,26.2-14.3,26.2-29.5c0-7.6-2.7-21.6-6.7-33.8
		c-0.3-0.6-0.6-0.9-1.5-0.9h-3l2.7-6.7l24.4,9.1c0.3,0,0.3,0,0.6,0c0.6,0,0.9-0.3,1.2-0.6c0.3-0.6,0.3-1.2-0.3-1.8l-20.4-20.1
		c-0.3-0.3-0.6-0.3-0.9-0.3L141,67.9c-0.6,0-1.2,0.6-1.5,1.2c0,0.6,0.3,1.2,0.9,1.5l25,9.4l-3,7.6h-37.5c-0.6,0-1.2,0.3-1.5,0.9
		c-4,12.5-6.7,26.5-6.7,33.8c0,0.6,0,0.9,0,1.2v0.3c0,0.3,0,0.3,0,0.3c0.9,14.3,11.9,25.6,25.9,27.4v27.7h-28.9V97.5
		c0-0.3,0-0.6-0.3-0.6c-0.6-10.7-7-20.1-17.1-24.7V34.4c0-1.2-0.9-2.1-2.1-2.1H75.8c-1.2,0-2.1,0.9-2.1,2.1v37.8
		c-10.1,4.3-16.8,14-17.1,25c0,0,0,0,0,0.3V180H23.1c-0.9,0-1.5,0.6-1.5,1.5c0,0.9,0.6,1.5,1.5,1.5h34.1v3H32
		c-0.9,0-1.5,0.6-1.5,1.5c0,0.9,0.6,1.5,1.5,1.5h25.3v6.4l0,0v0.3c0,7.3,14.6,11.3,28.3,11.3s28.3-4,28.3-11.3v-0.3l0,0v-6.7h17.7
		c0.9,0,1.5-0.6,1.5-1.5c0-0.9-0.6-1.5-1.5-1.5h-17.7v-3h28.9v6.7l-13.1,7.6c-0.6,0.3-0.9,0.9-0.6,1.5c0.3,0.6,0.6,1.2,1.5,1.2h13.7
		h4.6h13.7c0.6,0,1.2-0.3,1.5-1.2C164.2,198,163.9,197.4,163.2,197.1z M171.8,70.1L187,85l-38.4-14.6L171.8,70.1z M111.2,194.9v0.3
		v0.3c0,4-10.4,8.5-25.6,8.5S60,199.5,60,195.5c0,0,0,0,0-0.3v-0.3V97.5l0,0c0.3-10.4,6.7-19.2,16.1-23.1c0.6-0.3,0.9-0.6,0.9-1.2
		V35.3h16.8v37.8c0,0.6,0.3,1.2,0.9,1.2c9.4,3.7,15.8,12.8,16.1,22.8c0,0.3,0,0.3,0.3,0.6L111.2,194.9L111.2,194.9z M167.2,90.5
		c4,13.1,6.1,26.2,6.1,32c0,0,0,0,0,0.3h-22.5l13.1-32.3C163.9,90.5,167.2,90.5,167.2,90.5z M126.1,90.5h35L148,122.7h-28
		c0,0,0,0,0-0.3C119.7,116.6,121.8,103.9,126.1,90.5z M120,125.8h26.5l-7,17.4c-0.3,0.6,0,1.5,0.9,1.8c0.3,0,0.3,0,0.6,0
		c0.6,0,1.2-0.3,1.2-0.9l7.6-18.6h23.5c-1.5,13.4-12.8,23.8-26.5,23.8S121.5,139.2,120,125.8z M148.9,196.8h-4.6h-8.2l9.1-5.5
		c0.3-0.3,0.6-0.6,0.6-1.2v-37.8c0.3,0,0.6,0,0.6,0c0.3,0,0.6,0,0.6,0v37.8c0,0.6,0.3,0.9,0.6,1.2l9.1,5.5L148.9,196.8L148.9,196.8z
		"/>
	<path fill="#FFFFFF" d="M53.9,161.1c0.9,0,1.5-0.6,1.5-1.5V113c0-0.9-0.6-1.5-1.5-1.5c-0.9,0-1.5,0.6-1.5,1.5v46.6
		C52.4,160.5,53,161.1,53.9,161.1z"/>
	<path fill="#FFFFFF" d="M102.6,73.1c0.3,0,10.1,2.1,12.2,16.1c0,0.6,0.6,1.2,1.5,1.2c0,0,0,0,0.3,0c0.9,0,1.2-0.9,1.2-1.5
		c-2.4-16.1-14-18.6-14.6-18.6c-0.9,0-1.5,0.3-1.5,1.2C101.4,72.2,102,73.1,102.6,73.1z"/>
	<path fill="#FFFFFF" d="M180,130.4c0-0.9-0.6-1.5-1.2-1.5c-0.9,0-1.5,0.6-1.5,1.2c-1.2,17.1-14.9,19.8-15.5,20.1
		c-0.9,0.3-1.2,0.9-1.2,1.8c0,0.6,0.6,1.2,1.5,1.2h0.3c0.3,0,4.3-0.9,8.5-4C174.5,145.9,179.1,140.4,180,130.4z"/>
	<path fill="#FFFFFF" d="M169,176.3c1.5,0.9,3.4,0.9,5.8,0.9c0.6,0,1.2,0,1.8,0c1.2,0,2.4,0,4,0c0.6,0,1.2,0,1.8,0
		c3.4,0,8.5,0,8.5-6.7c0-6.7-5.5-12.2-12.2-12.2c-6.7,0-12.2,5.5-12.2,12.2C166.3,173.6,167.2,175.4,169,176.3z M178.5,161.4
		c5.2,0,9.4,4.3,9.4,9.4c0,3-1.2,3.7-5.8,3.7c-0.6,0-1.2,0-1.8,0s-1.2,0-1.8,0s-1.2,0-1.8,0s-1.2,0-1.8,0c-1.8,0-3.4,0-4.6-0.6
		c-0.6-0.3-1.2-0.9-1.2-3C169,165.4,173.3,161.4,178.5,161.4z"/>
	<path fill="#FFFFFF" d="M33.8,178.8c5.2,0,9.4-4.3,9.4-9.4s-4.3-9.4-9.4-9.4s-9.4,4.3-9.4,9.4S28.6,178.8,33.8,178.8z M33.8,162.9
		c3.7,0,6.4,3,6.4,6.4c0,3.7-3,6.4-6.4,6.4s-6.4-2.7-6.4-6.4C27.4,165.7,30.2,162.9,33.8,162.9z"/>
	<path fill="#FFFFFF" d="M152,205.3h-33.5c-0.9,0-1.5,0.6-1.5,1.5c0,0.9,0.6,1.5,1.5,1.5H152c0.9,0,1.5-0.6,1.5-1.5
		C153.5,205.9,152.9,205.3,152,205.3z"/>
	<path fill="#FFFFFF" d="M179.4,154.7c0,0.3,0.3,0.9,0.6,1.2c0.3,0.3,0.6,0.3,0.9,0.3l0,0c16.8-1.5,15.8-15.2,15.8-15.5
		c0-0.9-0.6-1.2-1.5-1.2C179.7,140.1,179.4,154.4,179.4,154.7z M194,142.5c-0.3,2.7-2.1,9.1-11.6,10.7
		C183,149.8,185.2,143.5,194,142.5z"/>
	<path fill="#FFFFFF" d="M33.8,156.2c0.3,0,0.6,0,0.9-0.3c0.6-0.6,13.4-13.4,11.9-25.9c0-0.9-0.9-1.2-1.5-1.2
		c-0.9,0-1.2,0.9-1.2,1.5c1.2,11.3-11,23.5-11.3,23.5c-0.6,0.6-0.6,1.5,0,2.1C33.2,156.2,33.5,156.2,33.8,156.2z"/>
	<path fill="#FFFFFF" d="M183.7,192.5h-10.4c-0.9,0-1.5,0.6-1.5,1.5c0,0.9,0.6,1.5,1.5,1.5h10.4c0.9,0,1.5-0.6,1.5-1.5
		C185.2,193.1,184.6,192.5,183.7,192.5z"/>
	<path fill="#FFFFFF" d="M212.9,169.9c-5.2,0-9.4,4.3-9.4,9.4s4.3,9.4,9.4,9.4s9.4-4.3,9.4-9.4C222,174.2,218.1,169.9,212.9,169.9z
		 M212.9,185.8c-3.7,0-6.4-3-6.4-6.4c0-3.4,3-6.4,6.4-6.4s6.4,3,6.4,6.4C219.3,182.7,216.2,185.8,212.9,185.8z"/>
	<path fill="#FFFFFF" d="M201.3,190.7c-4,0-7.3,3.4-7.3,7.3c0,4,3.4,7.3,7.3,7.3c4,0,7.3-3.4,7.3-7.3S205.3,190.7,201.3,190.7z
		 M201.3,202.5c-2.4,0-4.6-2.1-4.6-4.6c0-2.4,2.1-4.6,4.6-4.6c2.4,0,4.6,2.1,4.6,4.6C205.9,200.4,203.8,202.5,201.3,202.5z"/>
</g>
</svg>
