<?xml version="1.0" encoding="utf-8"?>
<!-- Generator: Adobe Illustrator 18.0.0, SVG Export Plug-In . SVG Version: 6.00 Build 0)  -->
<!DOCTYPE svg PUBLIC "-//W3C//DTD SVG 1.1//EN" "http://www.w3.org/Graphics/SVG/1.1/DTD/svg11.dtd">
<svg version="1.1" id="Layer_1" xmlns="http://www.w3.org/2000/svg" xmlns:xlink="http://www.w3.org/1999/xlink" x="0px" y="0px"
	 viewBox="0 0 240 240" enable-background="new 0 0 240 240" xml:space="preserve">
<g>
	<path fill="#FFFFFF" d="M195.8,66.4c9.7,0,17.7-7.9,17.7-17.7s-7.9-17.7-17.7-17.7c-9.7,0-17.7,7.9-17.7,17.7
		S186.1,66.4,195.8,66.4z M195.8,34.4c7.9,0,14.6,6.4,14.6,14.6s-6.4,14.6-14.6,14.6c-8.2,0-14.6-6.4-14.6-14.6
		S187.6,34.4,195.8,34.4z"/>
	<path fill="#FFFFFF" d="M35.3,156.5c0.6,0,0.9-0.3,1.2-0.3c1.2,0.9,2.4,1.8,3.7,2.4c2.1,0.9,4.6,1.5,7,1.5c3,0,6.1-0.9,9.4-2.4
		l3.7,18c0,0.6,0.9,1.2,1.5,1.2h0.3c0.9-0.3,1.2-0.9,1.2-1.8l-2.1-10.4c7.9-1.8,13.7-5.8,17.7-9.7c2.1,0.9,4.6,1.5,7,1.5l0,0
		c1.2,0,2.7-0.3,4-0.6c8.8-2.1,14.3-11.3,11.9-20.1c-1.8-7.3-8.5-12.5-15.8-12.5c-1.2,0-2.7,0.3-4,0.6c0.9-4.6,0.9-9.1,0-13.4
		c-3.4-12.8-14.6-21.9-28-21.9c-2.4,0-4.9,0.3-7,0.9c-13.1,3.4-22.2,15.2-21.9,28.6c-4.9,1.5-8.8,4.6-11.6,8.8
		c-2.7,4.6-3.7,9.7-2.1,14.9c2.1,8.8,10.1,14.9,19.2,14.9C32,157.2,33.8,156.9,35.3,156.5z M41.7,155.9c-0.6-0.3-1.2-0.6-1.8-1.2
		c3.7-1.8,6.7-4.9,8.5-8.8c2.1,0.3,4.3,0.6,6.4,0.6l1.8,8.2C50.6,157.5,45.7,157.8,41.7,155.9z M60.6,162l-3-15.5
		c1.2,0,2.1-0.3,3.4-0.6c3-0.9,6.1-2.1,8.5-3.7c0,0.6,0.3,1.5,0.3,2.1c0.9,4,3.4,7,6.4,9.4C72.5,157.2,67.3,160.2,60.6,162z
		 M14.3,141.3c-2.1-9.1,3.4-18.3,12.2-20.4h0.3h0.3c0.6-0.3,1.2-0.9,1.2-1.5c-0.9-12.5,7.3-23.8,19.5-26.8c2.1-0.6,4.3-0.9,6.4-0.9
		c11.9,0,22.2,7.9,25,19.5c1.2,4.9,0.9,9.7-0.6,14.6c-0.3,0.6,0,1.2,0.3,1.5c0.3,0.3,1.2,0.6,1.5,0.3c0.6-0.3,1.5-0.6,2.1-0.9
		c1.2-0.3,2.1-0.3,3.4-0.3c6.1,0,11.6,4.3,13.1,10.4c1.8,7.3-2.4,14.6-9.7,16.4c-1.2,0.3-2.1,0.3-3.4,0.3l0,0
		c-1.5,0-3.4-0.3-4.6-0.9c0.3-0.6,0.9-0.9,1.2-1.5c4.3-5.2,6.1-10.1,6.1-10.1c0.3-0.9,0-1.5-0.9-1.8s-1.5,0-1.8,0.9
		c0,0-2.1,5.8-7.3,11.3c-2.7-1.8-4.9-4.6-5.5-7.9c-0.3-1.5-0.6-2.7-0.3-4.3c0-0.6-0.3-1.2-0.9-1.5s-1.2-0.3-1.5,0.3
		c-3,2.4-6.1,4-9.7,4.9c-0.9,0.3-2.1,0.3-3,0.6l-3.7-17.7l12.5-12.5c0.6-0.6,0.6-1.5,0-2.1c-0.6-0.6-1.5-0.6-2.1,0L53,122.4
		l-2.1-10.1c-0.3-0.9-0.9-1.2-1.8-1.2c-0.9,0.3-1.2,0.9-1.2,1.8l6.4,30.8c-2.1,0-4.3-0.3-6.1-0.6c-0.6-0.3-1.5,0.3-1.8,0.9
		c-1.8,4-4.9,7-8.5,8.8c-5.5-6.1-7.3-16.1-7.3-16.1c0-0.9-0.9-1.2-1.8-1.2s-1.2,0.9-1.2,1.8c0,0.6,1.8,10.1,7.3,16.8
		c-1.2,0.3-2.4,0.3-4,0.3C22.8,154.1,16.1,148.9,14.3,141.3z"/>
	<path fill="#FFFFFF" d="M226.3,179.7h-198c-0.9,0-1.5,0.6-1.5,1.5c0,0.9,0.9,1.5,1.5,1.5h198c0.9,0,1.5-0.6,1.5-1.5
		C227.8,180.3,227.2,179.7,226.3,179.7z"/>
	<path fill="#FFFFFF" d="M218.1,185.8H50.6c-0.9,0-1.5,0.6-1.5,1.5c0,0.9,0.6,1.5,1.5,1.5h167.5c0.9,0,1.5-0.6,1.5-1.5
		C219.6,186.7,219,185.8,218.1,185.8z"/>
	<path fill="#FFFFFF" d="M204.1,192.5H36.5c-0.9,0-1.5,0.6-1.5,1.5c0,0.9,0.6,1.5,1.5,1.5h167.5c0.9,0,1.5-0.6,1.5-1.5
		C205.6,193.4,205,192.5,204.1,192.5z"/>
	<path fill="#FFFFFF" d="M176,199.2H92.6c-0.9,0-1.5,0.6-1.5,1.5c0,0.9,0.6,1.5,1.5,1.5H176c0.9,0,1.5-0.6,1.5-1.5
		C177.6,199.8,176.6,199.2,176,199.2z"/>
	<path fill="#FFFFFF" d="M200.4,91.4l-2.7,2.1l-2.7-2.1c-0.6-0.6-1.5-0.3-2.1,0.3c-0.6,0.6-0.3,1.5,0.3,2.1l3.7,2.7
		c0.3,0.3,0.6,0.3,0.9,0.3c0.3,0,0.6,0,0.9-0.3l3.7-3c0.6-0.6,0.9-1.5,0.3-2.1C202.2,91.1,201.3,90.8,200.4,91.4z"/>
	<path fill="#FFFFFF" d="M212,82.5l-2.1,1.5l-2.7-1.5c-0.6-0.3-1.5-0.3-2.1,0.6c-0.3,0.6-0.3,1.5,0.6,2.1l3.4,2.1
		c0.3,0.3,0.6,0.3,0.9,0.3c0.3,0,0.6,0,0.9-0.3l3-2.1c0.6-0.6,0.9-1.5,0.3-2.1C213.5,82.2,212.6,81.9,212,82.5z"/>
	<path fill="#FFFFFF" d="M215.9,120.6l3.4,2.1c0.3,0.3,0.6,0.3,0.9,0.3c0.3,0,0.6,0,0.9-0.3l3-2.1c0.6-0.6,0.9-1.5,0.3-2.1
		c-0.6-0.6-1.5-0.9-2.1-0.3l-2.1,1.5l-2.4-1.5c-0.6-0.3-1.5-0.3-2.1,0.6C215,119.4,215.3,120.3,215.9,120.6z"/>
	<path fill="#FFFFFF" d="M54.5,70.4l3.4,2.1c0.3,0.3,0.6,0.3,0.9,0.3c0.3,0,0.6,0,0.9-0.3l3-2.1c0.6-0.6,0.9-1.5,0.3-2.1
		c-0.6-0.6-1.5-0.9-2.1-0.3l-2.1,1.5l-2.4-1.5c-0.6-0.3-1.5-0.3-2.1,0.6C53.6,68.8,53.9,69.7,54.5,70.4z"/>
	<path fill="#FFFFFF" d="M72.2,174.8c0,0.9,0.6,1.5,1.5,1.5h65.5c0.9,0,1.5-0.6,1.5-1.5c0-0.9-0.6-1.5-1.5-1.5H73.7
		C72.8,173.3,72.2,173.9,72.2,174.8z"/>
	<path fill="#FFFFFF" d="M88.6,169v-9.7c0-0.9-0.6-1.5-1.5-1.5c-0.9,0-1.5,0.6-1.5,1.5v9.7c0,0.9,0.6,1.5,1.5,1.5
		C87.7,170.6,88.6,169.9,88.6,169z"/>
	<path fill="#FFFFFF" d="M124.3,159.3v-3.7c0-0.6-0.6-1.5-1.5-1.5c-0.6,0-1.5,0.6-1.5,1.5v3.7c0,0.6,0.6,1.5,1.5,1.5
		C123.4,160.8,124.3,160.2,124.3,159.3z"/>
	<path fill="#FFFFFF" d="M143.1,171.2c0.6,0,1.5-0.6,1.5-1.5v-28c0-0.6-0.6-1.5-1.5-1.5h-15.5l0,0l0,0h-15.5c-0.6,0-1.5,0.6-1.5,1.5
		v28c0,0.6,0.6,1.5,1.5,1.5c0.9,0,1.5-0.6,1.5-1.5v-26.5h12.8v26.8c0,0.6,0.6,1.5,1.5,1.5l0,0l0,0c0.6,0,1.5-0.6,1.5-1.5v-26.8h12.8
		v26.8C141.6,170.6,142.2,171.2,143.1,171.2z"/>
	<path fill="#FFFFFF" d="M133.7,159.3v-3.7c0-0.6-0.6-1.5-1.5-1.5c-0.6,0-1.5,0.6-1.5,1.5v3.7c0,0.6,0.6,1.5,1.5,1.5
		C133.1,160.8,133.7,160.2,133.7,159.3z"/>
	<path fill="#FFFFFF" d="M78.9,83.5h6.4v35c0,0.9,0.6,1.5,1.5,1.5s1.5-0.6,1.5-1.5V56.3c0-5.2,4.3-9.4,9.4-9.4h52.7
		c7.9,0,14.6,6.4,14.6,14.6v84.7c0,0.9,0.6,1.5,1.5,1.5c0.9,0,1.5-0.6,1.5-1.5v-10.7h6.4c1.2,0,2.1-0.9,2.1-2.1v-19.5
		c0-1.2-0.9-2.1-2.1-2.1h-6.4v-11h6.4c1.2,0,2.1-0.9,2.1-2.1V79.2c0-1.2-0.9-2.1-2.1-2.1h-6.4V61.2c0-9.7-7.9-17.4-17.4-17.4h-14.6
		v-5.2c0-0.9-0.6-1.5-1.5-1.5s-1.5,0.6-1.5,1.5v5.2h-27.7c0.3-0.3,0.3-0.6,0.3-0.9v-3.4c0-0.9-0.6-1.5-1.5-1.5s-1.5,0.6-1.5,1.5v3
		c0,0.3,0.3,0.9,0.3,0.9h-5.5C90.5,43.6,85,49,85,56v3.4h-6.4c-1.2,0-2.1,0.9-2.1,2.1V81C77.1,82.2,78,83.5,78.9,83.5z M168.1,132.8
		v-3h5.8v3H168.1z M174.2,114.5v12.2h-5.8v-12.2H174.2z M168.1,98.1v-3h5.8v3H168.1z M174.2,79.8V92h-5.8V79.8H174.2z M79.8,80.4
		v-4.3h5.8v4.6h-5.8V80.4z M85.6,62.4v10.7h-5.8V62.4H85.6z"/>
	<path fill="#FFFFFF" d="M135.2,81V61.5c0-1.2-0.9-2.1-2.1-2.1h-31.7c-1.2,0-2.1,0.9-2.1,2.1V81c0,1.2,0.9,2.1,2.1,2.1h31.7
		C134.3,83.1,135.2,82.2,135.2,81z M132.5,62.1v11h-30.2v-11H132.5z M102.3,80.4v-4.6h30.2v4.6H102.3z"/>
	<path fill="#FFFFFF" d="M150.5,118.2V98.7c0-1.2-0.9-2.1-2.1-2.1h-31.7c-1.2,0-2.1,0.9-2.1,2.1v19.5c0,1.2,0.9,2.1,2.1,2.1h31.7
		C149.5,120.3,150.5,119.4,150.5,118.2z M147.7,99.3v11h-30.2v-11H147.7z M117.6,117.6V113h30.2v4.6H117.6z"/>
	<path fill="#FFFFFF" d="M157.8,169.6c0,4,3.4,7.3,7.3,7.3s7.3-3.4,7.3-7.3s-3.4-7.3-7.3-7.3S157.8,165.4,157.8,169.6z M169.6,169.6
		c0,2.4-2.1,4.6-4.6,4.6c-2.4,0-4.6-2.1-4.6-4.6c0-2.4,2.1-4.6,4.6-4.6C167.5,165.1,169.6,166.9,169.6,169.6z"/>
	<path fill="#FFFFFF" d="M198.9,169.6c0,4,3.4,7.3,7.3,7.3s7.3-3.4,7.3-7.3s-3.4-7.3-7.3-7.3S198.9,165.4,198.9,169.6z M210.8,169.6
		c0,2.4-2.1,4.6-4.6,4.6c-2.4,0-4.6-2.1-4.6-4.6c0-2.4,2.1-4.6,4.6-4.6C208.6,165.1,210.8,166.9,210.8,169.6z"/>
	<path fill="#FFFFFF" d="M224.2,149.8l-0.3-0.3c-27.1-9.4-41.7-7-49-3.4c-5.5,2.7-7.9,6.4-8.8,8.2c-8.8,0-13.7,4-16.4,7.6
		c-2.7,4-3.4,7.9-3.7,7.9c0,0.3,0,0.9,0.3,1.2c0.3,0.3,0.6,0.6,0.9,0.6h7c0.6,0,1.5-0.6,1.5-1.5c0-0.6-0.6-1.5-1.5-1.5h-5.2
		c1.2-3.7,4.9-11.9,17.7-11.6c0.6,0,1.2-0.3,1.2-0.9c0,0,1.5-4.6,7.9-7.6c7-3.4,20.7-5.8,46.6,3.4c0.3,0.3,1.8,2.1,3,5.2
		c-0.6,0.3-1.2,0.6-1.8,1.5c-1.5,1.8-1.5,4.9-0.6,9.1h-6.1c-0.6,0-1.5,0.6-1.5,1.5c0,0.6,0.6,1.5,1.5,1.5h12.5
		c0.3,0,0.6-0.3,0.9-0.3c0.3-0.3,0.3-0.6,0.3-0.9C229.6,154.4,224.5,149.8,224.2,149.8z M226,167.8c-1.2-4.6-0.6-6.7,0-7.3
		c0.3-0.3,0.3-0.3,0.6-0.6c0.6,2.1,1.2,4.6,1.5,7.9L226,167.8L226,167.8z"/>
	<path fill="#FFFFFF" d="M219.3,153.2c0-0.6-0.6-1.2-1.5-1.2l-46.9,2.4c-0.6,0-1.2,0.6-1.2,1.5c0,0.6,0.6,1.2,1.5,1.2l0,0l46.9-2.4
		C219,154.7,219.6,153.8,219.3,153.2z"/>
	<path fill="#FFFFFF" d="M192.5,157.5c-0.6-0.3-1.5,0-1.8,0.9l-3.4,9.4H176c-0.6,0-1.5,0.6-1.5,1.5c0,0.6,0.6,1.5,1.5,1.5h20.4
		c0.6,0,1.5-0.6,1.5-1.5c0-0.6-0.6-1.5-1.5-1.5h-6.1l3-8.5C193.4,158.4,193.1,157.8,192.5,157.5z"/>
</g>
</svg>
