<?xml version="1.0" encoding="utf-8"?>
<!-- Generator: Adobe Illustrator 19.2.0, SVG Export Plug-In . SVG Version: 6.00 Build 0)  -->
<svg version="1.1" id="Слой_1" xmlns="http://www.w3.org/2000/svg" xmlns:xlink="http://www.w3.org/1999/xlink" x="0px" y="0px"
	 width="366.6px" height="366.6px" viewBox="0 0 366.6 366.6" style="enable-background:new 0 0 366.6 366.6;" xml:space="preserve"
	>
<style type="text/css">
	.st0{fill:#FFFFFF;}
</style>
<g>
	<path class="st0" d="M149.7,258.1c-0.1-0.9-0.9-1.7-1.9-1.7H88.2c-1,0-1.8,0.7-1.9,1.7l-3,9.2c0,0.1-0.1,0.3-0.1,0.4
		c0,1.1,0.9,1.9,1.9,1.9h65.9c1.1,0,1.9-0.9,1.9-1.9c0-0.1,0-0.3-0.1-0.4L149.7,258.1z M86.1,267.1l2.6-8.1h58.6l2.9,8.1H86.1z"/>
	<path class="st0" d="M104.5,235.4h3.7c2.9,0,5.3-2.4,5.3-5.3v-32.9c0-2.9-2.4-5.3-5.3-5.3h-3.7c-2.9,0-5.3,2.4-5.3,5.3v32.9
		C99.2,233,101.5,235.4,104.5,235.4z M104.5,194.5h3.7c1.5,0,2.8,1.2,2.8,2.8v32.9c0,1.5-1.2,2.8-2.8,2.8h-3.7
		c-1.5,0-2.8-1.2-2.8-2.8v-0.2h3.7c0.7,0,1.3-0.6,1.3-1.3c0-0.7-0.6-1.3-1.3-1.3h-3.7v-1.2h3.7c0.7,0,1.3-0.6,1.3-1.3
		c0-0.7-0.6-1.3-1.3-1.3h-3.7v-1.8h6.9c0.7,0,1.3-0.6,1.3-1.3c0-0.7-0.6-1.3-1.3-1.3h-6.9v-1.5h4.1c0.7,0,1.3-0.6,1.3-1.3
		c0-0.7-0.6-1.3-1.3-1.3h-4.1V214h4.1c0.7,0,1.3-0.6,1.3-1.3c0-0.7-0.6-1.3-1.3-1.3h-4.1v-1.8h7.3c0.7,0,1.3-0.6,1.3-1.3
		c0-0.7-0.6-1.3-1.3-1.3h-7.3v-1.6h4.1c0.7,0,1.3-0.6,1.3-1.3c0-0.7-0.6-1.3-1.3-1.3h-4.1v-1.2h4.1c0.7,0,1.3-0.6,1.3-1.3
		c0-0.7-0.6-1.3-1.3-1.3h-4.1v-1.9C101.7,195.7,103,194.5,104.5,194.5z"/>
	<path class="st0" d="M76.9,206.1c0.8-1.3,1.2-4.1-1.3-10.2v-0.4c0-0.6-0.4-1.1-1-1.2c-0.1,0-0.3,0-0.4,0c-0.1,0-0.3,0-0.4,0
		c-0.6,0.1-1,0.6-1,1.2v0.4c-2.5,6.1-2.1,8.9-1.3,10.2c0.5,0.8,1.3,1.3,2.2,1.5c0.1,0,0.2,0,0.3,0c0,0,0.1,0,0.1,0c0,0,0.1,0,0.1,0
		c0.1,0,0.2,0,0.3,0C75.6,207.4,76.4,206.9,76.9,206.1z M74.7,204.7c-0.1,0.1-0.2,0.2-0.5,0.3c0,0,0,0,0,0c0,0,0,0,0,0
		c-0.3,0-0.4-0.1-0.5-0.3c-0.5-0.8-0.2-2.8,0.5-5.3C75,202,75.2,204,74.7,204.7z"/>
	<path class="st0" d="M160.3,253.9c0.8-5.3,1.3-10.8,1.3-16.3c0-0.5,0-1,0-1.4c4.6-0.1,8.4-3.9,8.4-8.5l4.9-33.1c0-0.1,0-0.1,0-0.2
		c0-4.7-3.9-8.6-8.6-8.6h-16.4c-1.2,0-2.4,0.3-3.5,0.8c-3.2-4.2-6.8-7.6-10.7-10.2c0,0,0-0.1,0-0.1c-1.3-6.1-4-11.2-8-15.2
		c-4-4-9.2-6.7-15.2-8c-0.6-0.1-1.1,0.1-1.4,0.6c-0.3,0.5-0.2,1.1,0.2,1.5l20.8,20.8h-28.9c-0.1,0-0.2,0-0.2,0c0,0,0,0-0.1,0
		c-0.1,0-0.1,0-0.2,0c0,0,0,0-0.1,0c-0.1,0-0.1,0.1-0.2,0.1c0,0,0,0,0,0c0,0,0,0,0,0c-2,1.3-3.9,2.8-5.7,4.5c-0.1,0-0.1,0-0.2,0
		H83.8c-1.9,0-3.7,0.9-4.9,2.4s-1.5,3.5-1,5.4l4.2,15c-3.9,10.1-6,21.8-6,34.1c0,5.5,0.4,11,1.3,16.3c0.1,0.6,0.6,1.1,1.3,1.1H159
		C159.6,255,160.2,254.5,160.3,253.9z M149.8,188.4h16.4c3.3,0,6,2.7,6,6l-4.9,33.1c0,0.1,0,0.1,0,0.2c0,3-2.2,5.6-5.2,6
		c-0.1-2-0.2-4-0.4-5.9c1.4-1.2,2.2-2.8,2.2-4.6l3.3-22.3c0-0.1,0-0.1,0-0.2c0-3.4-2.8-6.2-6.2-6.2h-9.4c-1.1-2-2.3-3.9-3.6-5.7
		C148.6,188.5,149.2,188.4,149.8,188.4z M161.1,196.9c2,0,3.6,1.6,3.7,3.6l-3.3,22.3c0,0.1,0,0.1,0,0.2c0,0.8-0.2,1.5-0.7,2.1
		c-1.3-10.4-4.1-20-8.1-28.2H161.1z M116.5,156.8c3.6,1.4,6.7,3.4,9.3,6c2.6,2.6,4.6,5.7,6,9.3L116.5,156.8z M134.2,178.5
		c3,2,5.8,4.5,8.3,7.5H95.1c2.6-3,5.4-5.5,8.3-7.5H134.2z M88.4,190.8l-2.7-7.6h8.5C92.1,185.5,90.2,188,88.4,190.8z M80.4,187.8
		c-0.3-1.1-0.1-2.3,0.6-3.2c0.5-0.7,1.2-1.1,2-1.3l3.5,9.9c0.1,0.1,0.1,0.3,0.2,0.4c-1.1,1.9-2.1,4-3.1,6.1L80.4,187.8z M85.8,201.4
		c2.1-4.8,4.6-9.1,7.3-12.8h40.1c1,3.8,8.6,32.8,5.9,51.3c-0.1,0.7,0.4,1.3,1.1,1.4c0.1,0,0.1,0,0.2,0c0.6,0,1.2-0.5,1.3-1.1
		c1.3-8.6,0.6-20.1-1.9-34.2c-1.5-8.2-3.2-15-3.9-17.5h8.7c2.8,3.7,5.2,8,7.3,12.8c4.6,10.7,7.1,23.2,7.1,36.3
		c0,2.1-0.1,4.1-0.2,6.2h-80c-0.1-2.1-0.2-4.1-0.2-6.2C78.7,224.6,81.1,212.1,85.8,201.4z M79.7,252.4c-0.3-2-0.5-4-0.7-6h79.6
		c-0.2,2-0.4,4.1-0.7,6H79.7z"/>
	<path class="st0" d="M174.5,224.3l3-20.6c0.1-0.7-0.4-1.3-1.1-1.4c-0.7-0.1-1.3,0.4-1.4,1.1l-3,20.6c-0.1,0.7,0.4,1.3,1.1,1.4
		c0.1,0,0.1,0,0.2,0C173.9,225.4,174.4,225,174.5,224.3z"/>
	<path class="st0" d="M139.7,166.9c0,4.6,3.8,8.2,8.3,8.2h10.4c1.3,3,4.2,5.1,7.6,5.1h15.6v6.3c0,1.1,0.9,1.9,1.9,1.9h17.4
		c1.1,0,1.9-0.9,1.9-1.9v-6.3h0.2c4.6,0,8.3-3.7,8.3-8.3v-50.6c0-4.6-3.7-8.3-8.3-8.3H200v-3.4c0-1.1-0.9-1.9-1.9-1.9h-11.4
		c-1.1,0-1.9,0.9-1.9,1.9v3.4h-1.8v-3.4c0-1.1-0.9-1.9-1.9-1.9h-11.4c-1.1,0-1.9,0.9-1.9,1.9v3.4h-1.5c-4.6,0-8.3,3.7-8.3,8.3v1.4
		H144c-4.6,0-8.3,3.7-8.3,8.3c0,0,0,0.1,0,0.1L139.7,166.9z M200.5,185.8h-16.2v-5.7h16.2V185.8z M203.2,177.6h-2.1h-17.4h-17.5
		c-3.2,0-5.8-2.6-5.8-5.8v-29.4h48.6v29.4C208.9,175,206.4,177.6,203.2,177.6z M187.3,110.1h10.2v2.8h-10.2V110.1z M170.1,110.1
		h10.2v2.8h-10.2V110.1z M166.1,115.4h3.4h11.4h5.7h11.4h5.1c3.2,0,5.8,2.6,5.8,5.8v18.7h-48.6v-18.7
		C160.3,118,162.9,115.4,166.1,115.4z M157.8,164.5H152c-1.4,0-2.5-1.1-2.5-2.5c0-0.1,0-0.1,0-0.2l-4-26.2c0-1.3,1.2-2.4,2.5-2.4
		h9.8V164.5z M144,125.2h13.7v5.5H148c-2.8,0-5,2.3-5,5c0,0.1,0,0.1,0,0.2l4,26.2c0.1,2.7,2.3,4.9,5,4.9h5.7v5.5H148
		c-3.2,0-5.8-2.6-5.8-5.8c0,0,0-0.1,0-0.1l-4-35.8C138.3,127.7,140.8,125.2,144,125.2z"/>
	<path class="st0" d="M184.6,135.2h18.4c0.7,0,1.3-0.6,1.3-1.3c0-0.7-0.6-1.3-1.3-1.3h-18.4c-0.7,0-1.3,0.6-1.3,1.3
		C183.4,134.7,183.9,135.2,184.6,135.2z"/>
	<path class="st0" d="M184.6,130.2h18.4c0.7,0,1.3-0.6,1.3-1.3c0-0.7-0.6-1.3-1.3-1.3h-18.4c-0.7,0-1.3,0.6-1.3,1.3
		C183.4,129.6,183.9,130.2,184.6,130.2z"/>
	<path class="st0" d="M184.6,124.8h18.4c0.7,0,1.3-0.6,1.3-1.3c0-0.7-0.6-1.3-1.3-1.3h-18.4c-0.7,0-1.3,0.6-1.3,1.3
		C183.4,124.3,183.9,124.8,184.6,124.8z"/>
	<path class="st0" d="M249,150.3l10.2,0c0.3,0,0.7-0.1,0.9-0.4c0.2-0.2,0.4-0.6,0.4-0.9c0-3.5-2.9-6.4-6.4-6.4
		c-3.5,0-6.4,2.8-6.4,6.4c0,0.3,0.1,0.7,0.4,0.9C248.3,150.2,248.6,150.3,249,150.3z M254.1,145.3c1.7,0,3.1,1.1,3.6,2.5h-7.2
		C251,146.3,252.4,145.3,254.1,145.3z"/>
	<path class="st0" d="M282.4,245.8c-7.3,0-13.2,5.9-13.3,13.2c0,0.3,0.1,0.7,0.4,0.9c0.2,0.2,0.6,0.4,0.9,0.4h24
		c0.3,0,0.7-0.1,0.9-0.4c0.2-0.2,0.4-0.6,0.4-0.9C295.7,251.8,289.7,245.8,282.4,245.8z M271.8,257.8c0.7-5.3,5.2-9.4,10.6-9.4
		c5.5,0,10,4.1,10.6,9.4H271.8z"/>
	<path class="st0" d="M182.1,269.2h5.3h10.1h5.3c4.8,0,8.7-3.9,8.7-8.7c0-0.1,0-0.2,0-0.3l-4.3-20.6c-0.1-4.7-3.9-8.5-8.6-8.5h-3.1
		h-2.1v-33.8c2.9-0.6,5.1-3.2,5.1-6.2c0-0.3-0.1-0.7-0.4-0.9c-0.2-0.2-0.6-0.4-0.9-0.4H187c-0.3,0-0.7,0.1-0.9,0.4
		c-0.2,0.2-0.4,0.6-0.4,0.9c0,3.1,2.2,5.6,5.1,6.2v33.8h-1.4h-3.2c-4.7,0-8.6,3.8-8.6,8.5l-4,20.6c0,0.1,0,0.2,0,0.2
		C173.5,265.4,177.4,269.2,182.1,269.2z M188.5,192.4h7.2c-0.5,1.5-1.9,2.5-3.6,2.5C190.4,195,189,193.9,188.5,192.4z M204.6,239.9
		c0,0.1,0,0.2,0,0.3l4.3,20.6c-0.1,3.3-2.8,6-6.1,6h-1.8c0.9-1.5,1.4-3.7,1.4-6.1c0,0,0-0.1,0-0.1l-2.1-20.7c0-2.4-0.5-4.5-1.3-6
		C202.1,234,204.6,236.7,204.6,239.9z M195.4,233.8c0.9,0,2.3,2.4,2.3,6.1c0,0,0,0.1,0,0.1l2.1,20.7c0,3.6-1.4,6-2.3,6h-10.1
		c-0.9,0-2.3-2.4-2.3-6l2-20.7c0,0,0-0.1,0-0.1c0-3.7,1.4-6.1,2.3-6.1H195.4z M180,240.1c0-0.1,0-0.2,0-0.2c0-3.3,2.6-5.9,5.8-6.1
		c-0.8,1.5-1.3,3.6-1.4,6l-2,20.7c0,0,0,0.1,0,0.1c0,2.4,0.5,4.6,1.4,6.1h-1.8c-3.3,0-6-2.7-6.1-6L180,240.1z"/>
	<path class="st0" d="M213.8,155.5h63.5v71.9h-76.1c-0.7,0-1.3,0.6-1.3,1.3c0,0.7,0.6,1.3,1.3,1.3h19.4v21.2h-6.8
		c-0.7,0-1.3,0.6-1.3,1.3c0,0.7,0.6,1.3,1.3,1.3h8c0.7,0,1.3-0.6,1.3-1.3v-22.4h55.4c0.7,0,1.3-0.6,1.3-1.3v-74.4
		c0-0.7-0.6-1.3-1.3-1.3h-64.7c-0.7,0-1.3,0.6-1.3,1.3C212.5,154.9,213.1,155.5,213.8,155.5z"/>
	<path class="st0" d="M195.9,222.2c0,0.7,0.6,1.3,1.3,1.3h74.3c0.7,0,1.3-0.6,1.3-1.3v-60.8c0-0.7-0.6-1.3-1.3-1.3h-57
		c-0.7,0-1.3,0.6-1.3,1.3s0.6,1.3,1.3,1.3h55.7v58.3h-73C196.5,220.9,195.9,221.5,195.9,222.2z"/>
	<path class="st0" d="M217,258.1c-0.7,0-1.3,0.6-1.3,1.3s0.6,1.3,1.3,1.3h43.7c0.7,0,1.3-0.6,1.3-1.3v-4c0-0.7-0.6-1.3-1.3-1.3
		h-19.6v-20c0-0.7-0.6-1.3-1.3-1.3c-0.7,0-1.3,0.6-1.3,1.3v21.2c0,0.7,0.6,1.3,1.3,1.3h19.6v1.5H217z"/>
	<path class="st0" d="M291.1,263.4H217c-0.7,0-1.3,0.6-1.3,1.3s0.6,1.3,1.3,1.3h74.1c0.7,0,1.3-0.6,1.3-1.3S291.8,263.4,291.1,263.4
		z"/>
	<path class="st0" d="M273.6,273H157.8c-0.7,0-1.3,0.6-1.3,1.3s0.6,1.3,1.3,1.3h115.8c0.7,0,1.3-0.6,1.3-1.3S274.3,273,273.6,273z"
		/>
	<path class="st0" d="M235.8,183c0.7,0,1.3-0.6,1.3-1.3v-10.5c0-0.7-0.6-1.3-1.3-1.3h-10.5c-0.7,0-1.3,0.6-1.3,1.3v10.5
		c0,0.7,0.6,1.3,1.3,1.3H235.8z M226.7,172.5h7.9v7.9h-7.9V172.5z"/>
	<path class="st0" d="M250.3,189.5c0.7,0,1.3-0.6,1.3-1.3v-10.5c0-0.7-0.6-1.3-1.3-1.3h-10.5c-0.7,0-1.3,0.6-1.3,1.3v10.5
		c0,0.7,0.6,1.3,1.3,1.3H250.3z M241.1,179h7.9v7.9h-7.9V179z"/>
	<path class="st0" d="M218.3,203.2v10.5c0,0.7,0.6,1.3,1.3,1.3H230c0.7,0,1.3-0.6,1.3-1.3v-10.5c0-0.7-0.6-1.3-1.3-1.3h-10.5
		C218.8,201.9,218.3,202.5,218.3,203.2z M220.8,204.5h7.9v7.9h-7.9V204.5z"/>
	<path class="st0" d="M214.5,214.8c0.7,0,1.3-0.6,1.3-1.3v-10.5c0-0.7-0.6-1.3-1.3-1.3H204c-0.7,0-1.3,0.6-1.3,1.3v10.5
		c0,0.7,0.6,1.3,1.3,1.3H214.5z M205.3,204.3h7.9v7.9h-7.9V204.3z"/>
</g>
</svg>
