<?xml version="1.0" encoding="utf-8"?>
<!-- Generator: Adobe Illustrator 19.2.0, SVG Export Plug-In . SVG Version: 6.00 Build 0)  -->
<svg version="1.1" id="Слой_1" xmlns="http://www.w3.org/2000/svg" xmlns:xlink="http://www.w3.org/1999/xlink" x="0px" y="0px"
	 width="366.6px" height="366.6px" viewBox="0 0 366.6 366.6" style="enable-background:new 0 0 366.6 366.6;" xml:space="preserve"
	>
<style type="text/css">
	.st0{fill:#FFFFFF;}
</style>
<g>
	<path class="st0" d="M179.9,287.1c1.4-2,1.7-4.4,1-6.7l0,0c0-0.3-0.1-0.7-0.3-0.9l-10-26.8c-1.1-2.9-3.9-4.9-7.1-4.9H95.3
		c-3,0-5.8,1.8-7,4.6l-1.6,3.8H76.3c-0.8,0-1.4,0.6-1.4,1.4s0.6,1.4,1.4,1.4h9.2l-1.7,4H68.4c-0.8,0-1.4,0.6-1.4,1.4
		c0,0.8,0.6,1.4,1.4,1.4h14.2l-5.9,14.1l0,0c-1,2.3-0.7,5,0.7,7.1c1.4,2.1,3.8,3.4,6.3,3.4h90C176.1,290.4,178.5,289.2,179.9,287.1z
		 M91,253.5c0.7-1.7,2.4-2.8,4.3-2.8h68.1c1.9,0,3.7,1.2,4.4,3l9.4,25.3h-97l5.9-13.9l0,0l2.9-6.9l0,0L91,253.5L91,253.5z
		 M79.8,285.4c-0.7-1.1-0.9-2.3-0.7-3.5h99.1c0.3,1.2,0,2.5-0.7,3.6c-0.9,1.3-2.3,2-3.8,2h-90C82.1,287.5,80.7,286.7,79.8,285.4z"/>
	<path class="st0" d="M102.5,236.1c0,4.4,3.5,7.9,7.9,7.9c4.1,0,7.4-3.1,7.8-7h21c0.7,3.7,3.9,6.4,7.8,6.4c4.4,0,7.9-3.5,7.9-7.9
		c0-2.3-1-4.4-2.6-5.9c1.6-1.5,2.6-3.6,2.6-5.9c0-4.4-3.5-7.9-7.9-7.9c-3.9,0-7.1,2.8-7.8,6.4H118c-0.9-3.4-4-5.9-7.6-5.9
		c-4.4,0-7.9,3.5-7.9,7.9c0,2.3,1,4.4,2.6,5.9C103.5,231.7,102.5,233.8,102.5,236.1z M108.3,228.9c-1.8-0.8-3-2.6-3-4.6
		c0-2.8,2.2-5,5-5c2.6,0,4.8,2,5,4.6c0.1,0.7,0.7,1.3,1.4,1.3h23.7c0.8,0,1.4-0.6,1.4-1.4c0-2.8,2.2-5,5-5s5,2.2,5,5
		c0,2-1.2,3.8-3,4.6c-0.5,0.2-0.9,0.8-0.9,1.3c0,0.6,0.3,1.1,0.9,1.3c1.8,0.8,3,2.6,3,4.6c0,2.8-2.2,5-5,5s-5-2.2-5-5
		c0-0.8-0.6-1.4-1.4-1.4h-23.7c-0.4,0-0.8,0.2-1.1,0.5c-0.3,0.3-0.4,0.7-0.4,1.1c0,0.2,0,0.3,0,0.4c0,2.8-2.2,5-5,5s-5-2.2-5-5
		c0-2,1.2-3.8,3-4.6c0.5-0.2,0.9-0.8,0.9-1.3C109.2,229.6,108.8,229.1,108.3,228.9z"/>
	<path class="st0" d="M102.5,206.2c0,4.4,3.5,7.9,7.9,7.9c4.1,0,7.4-3.1,7.8-7h21c0.7,3.7,3.9,6.4,7.8,6.4c4.4,0,7.9-3.5,7.9-7.9
		c0-2.3-1-4.4-2.6-5.9c1.6-1.5,2.6-3.6,2.6-5.9c0-4.4-3.5-7.9-7.9-7.9c-3.9,0-7.1,2.8-7.8,6.4H118c-0.9-3.4-4-5.9-7.6-5.9
		c-4.4,0-7.9,3.5-7.9,7.9c0,2.3,1,4.4,2.6,5.9C103.5,201.8,102.5,204,102.5,206.2z M108.3,199c-1.8-0.8-3-2.6-3-4.6c0-2.8,2.2-5,5-5
		c2.6,0,4.8,2,5,4.6c0.1,0.7,0.7,1.3,1.4,1.3h23.7c0.8,0,1.4-0.6,1.4-1.4c0-2.8,2.2-5,5-5s5,2.2,5,5c0,2-1.2,3.8-3,4.6
		c-0.5,0.2-0.9,0.8-0.9,1.3c0,0.6,0.3,1.1,0.9,1.3c1.8,0.8,3,2.6,3,4.6c0,2.8-2.2,5-5,5s-5-2.2-5-5c0-0.8-0.6-1.4-1.4-1.4h-23.7
		c-0.4,0-0.8,0.2-1.1,0.5c-0.3,0.3-0.4,0.7-0.4,1.1c0,0.2,0,0.3,0,0.4c0,2.8-2.2,5-5,5s-5-2.2-5-5c0-2,1.2-3.8,3-4.6
		c0.5-0.2,0.9-0.8,0.9-1.3C109.2,199.8,108.8,199.3,108.3,199z"/>
	<path class="st0" d="M102.5,174c0,4.4,3.5,7.9,7.9,7.9c4.1,0,7.4-3.1,7.8-7h21c0.7,3.7,3.9,6.4,7.8,6.4c4.4,0,7.9-3.5,7.9-7.9
		c0-2.3-1-4.4-2.6-5.9c1.6-1.5,2.6-3.6,2.6-5.9c0-4.4-3.5-7.9-7.9-7.9c-3.9,0-7.1,2.8-7.8,6.4H118c-0.9-3.4-4-5.9-7.6-5.9
		c-4.4,0-7.9,3.5-7.9,7.9c0,2.3,1,4.4,2.6,5.9C103.5,169.6,102.5,171.7,102.5,174z M108.3,166.8c-1.8-0.8-3-2.6-3-4.6
		c0-2.8,2.2-5,5-5c2.6,0,4.8,2,5,4.6c0.1,0.7,0.7,1.3,1.4,1.3h23.7c0.8,0,1.4-0.6,1.4-1.4c0-2.8,2.2-5,5-5s5,2.2,5,5
		c0,2-1.2,3.8-3,4.6c-0.5,0.2-0.9,0.8-0.9,1.3c0,0.6,0.3,1.1,0.9,1.3c1.8,0.8,3,2.6,3,4.6c0,2.8-2.2,5-5,5s-5-2.2-5-5
		c0-0.8-0.6-1.4-1.4-1.4h-23.7c-0.4,0-0.8,0.2-1.1,0.5c-0.3,0.3-0.4,0.7-0.4,1.1c0,0.2,0,0.3,0,0.4c0,2.8-2.2,5-5,5s-5-2.2-5-5
		c0-2,1.2-3.8,3-4.6c0.5-0.2,0.9-0.8,0.9-1.3C109.2,167.6,108.8,167,108.3,166.8z"/>
	<path class="st0" d="M101.5,266c3.5,0,6.3-2.8,6.3-6.3s-2.8-6.3-6.3-6.3s-6.3,2.8-6.3,6.3S98,266,101.5,266z M101.5,256.3
		c1.9,0,3.4,1.5,3.4,3.4s-1.5,3.4-3.4,3.4c-1.9,0-3.4-1.5-3.4-3.4S99.6,256.3,101.5,256.3z"/>
	<path class="st0" d="M253,231.4c0.8,0,1.4-0.6,1.4-1.4v-51.5c0-0.8-0.6-1.4-1.4-1.4s-1.4,0.6-1.4,1.4v51.4
		C251.5,230.7,252.2,231.4,253,231.4z"/>
	<path class="st0" d="M212.2,263.4c0,0.8,0.6,1.4,1.4,1.4h14.3c0.8,0,1.4-0.6,1.4-1.4v-27.6c6.8-0.7,12.1-6.5,12.1-13.5v-39.9
		c0-0.7-0.5-1.3-1.1-1.4c-0.7-0.2-1.3,0.2-1.6,0.8L227,205.3h-16.5l-12.7-12.5c-0.4-0.4-1-0.5-1.6-0.3c-0.5,0.2-0.9,0.8-0.9,1.3
		v24.7c0,1.3,0.1,2.5,0.4,3.7v0.1c1.7,7.6,8.4,13.2,16.4,13.5v27.6H212.2z M215.1,261.9v-5h11.4v5H215.1z M199.1,223.5h14.5
		c0.8,0,1.4-0.6,1.4-1.4c0-0.8-0.6-1.4-1.4-1.4h-15.2c-0.1-0.7-0.1-1.3-0.1-2v-21.3l10.7,10.5c0.3,0.3,0.6,0.4,1,0.4h18
		c0.5,0,1.1-0.3,1.3-0.8l9.4-18.8v32h-14.1c-0.8,0-1.4,0.6-1.4,1.4c0,0.8,0.6,1.4,1.4,1.4h14c-0.6,5.3-5.1,9.5-10.6,9.5
		c-0.8,0-1.4,0.6-1.4,1.4v19.7h-11.4v-19.7c0-0.8-0.6-1.4-1.4-1.4h-1C206.4,232.9,201.1,229,199.1,223.5z"/>
	<path class="st0" d="M288.5,256.2h-39.2c0-0.5,0-1.1,0-1.6l-0.3-86.4v-0.1c0,0,0,0,0-0.1c0,0,0,0,0-0.1v-0.1v-0.1
		c0,0,0-0.1-0.1-0.1c0,0,0-0.1-0.1-0.1c0,0,0-0.1-0.1-0.1l-0.1-0.1l0,0L229.4,148v-15.5c0-0.8-0.6-1.4-1.4-1.4h-53.2
		c-0.8,0-1.4,0.6-1.4,1.4v15.6l-13,18.9c-0.2,0.2-0.3,0.5-0.3,0.8v74.9c0,0.8,0.6,1.4,1.4,1.4s1.4-0.6,1.4-1.4v-74.4l11.4-16.6
		l8.6,23.7l2.7,99.6c0,0.8,0.7,1.4,1.4,1.4l0,0c0.8,0,1.4-0.7,1.4-1.5l-2.7-98.5l60.4-6.6l0.3,84.8c0,0.8,0,1.6-0.1,2.3
		c-0.1,0.2-0.2,0.5-0.2,0.7c0,0.2,0,0.3,0.1,0.4c-0.7,6.1-3.4,11.7-7.8,16.1c-2,2-4.3,3.7-6.7,4.9l0,0c-3.9,2-8.3,3.1-12.8,3.1H187
		c-0.8,0-1.4,0.6-1.4,1.4s0.6,1.4,1.4,1.4h31.9c4.9,0,9.5-1.1,13.7-3.3h29.6c0.8,0,1.4-0.6,1.4-1.4s-0.6-1.4-1.4-1.4h-25
		c1.1-0.8,2.2-1.8,3.2-2.8c1.7-1.7,3.2-3.6,4.4-5.7h35.6c0.8,0,1.4-0.6,1.4-1.4s-0.6-1.4-1.4-1.4h-34c1.3-2.7,2.1-5.6,2.6-8.5h39.5
		c0.8,0,1.4-0.6,1.4-1.4S289.3,256.2,288.5,256.2z M226.5,134v13.1h-50.3V134H226.5z M227.3,150l17.1,17.1l-59.2,6.5l-8.5-23.6
		H227.3z"/>
	<path class="st0" d="M255.9,262.1c-0.8,0-1.4,0.6-1.4,1.4s0.6,1.4,1.4,1.4h16.5c0.8,0,1.4-0.6,1.4-1.4s-0.6-1.4-1.4-1.4H255.9z"/>
	<path class="st0" d="M288.5,273.5H248c-0.8,0-1.4,0.6-1.4,1.4s0.6,1.4,1.4,1.4h40.5c0.8,0,1.4-0.6,1.4-1.4S289.3,273.5,288.5,273.5
		z"/>
	<path class="st0" d="M280.2,215c-4.2,0-8.1,1.4-11.3,3.7c-0.1,0-0.1,0.1-0.2,0.2c-4.8,3.5-7.9,9.2-7.9,15.6
		c0,10.7,8.7,19.4,19.4,19.4c10.7,0,19.4-8.7,19.4-19.4C299.6,223.7,290.9,215,280.2,215z M263.7,234.4c0-5.3,2.5-9.9,6.3-13
		c2,0.4,8.5,2,13,7.7c3.7,4.8,5.1,11.4,4.1,19.4c0,0.3,0,0.5,0.1,0.8c-2.1,1-4.5,1.5-7,1.5C271.1,250.9,263.7,243.5,263.7,234.4z
		 M290.1,247.6c0.8-8.3-0.8-15.1-4.8-20.2c-3.7-4.7-8.5-7-11.8-8c2.1-0.9,4.3-1.4,6.7-1.4c9.1,0,16.5,7.4,16.5,16.5
		C296.7,239.8,294.1,244.6,290.1,247.6z"/>
	<path class="st0" d="M188.3,145.2h28.1c1.9,0,3.5-1.6,3.5-3.5v-2.8c0-1.9-1.6-3.5-3.5-3.5h-28.1c-1.9,0-3.5,1.6-3.5,3.5v2.8
		C184.8,143.6,186.4,145.2,188.3,145.2z M187.7,138.9c0-0.3,0.3-0.6,0.6-0.6h28.1c0.3,0,0.6,0.3,0.6,0.6v2.8c0,0.3-0.3,0.6-0.6,0.6
		h-28.1c-0.3,0-0.6-0.3-0.6-0.6L187.7,138.9L187.7,138.9z"/>
	<path class="st0" d="M167.6,296.1c-3.9,0-7.1,3.2-7.1,7.1c0,1.3,0.4,2.3,1.1,3c1,1,2.4,1.1,3.9,1.1c0.3,0,0.7,0,1,0
		c0.7,0,1.5,0,2.3,0c1.9,0,3.7,0.1,4.9-1.1c0.7-0.7,1.1-1.7,1.1-3C174.7,299.3,171.5,296.1,167.6,296.1z M171.6,304.1
		c-0.3,0.3-1.7,0.3-2.8,0.3c-0.8,0-1.6,0-2.4,0c-1.1,0-2.5,0.1-2.8-0.3c-0.1-0.1-0.2-0.5-0.2-0.9c0-2.3,1.9-4.2,4.2-4.2
		s4.2,1.9,4.2,4.2C171.8,303.7,171.7,304,171.6,304.1z"/>
	<path class="st0" d="M185.5,289.7c-3.9,0-7.1,3.2-7.1,7.1c0,1.3,0.4,2.3,1.1,3c1.2,1.2,3,1.1,4.9,1.1c0.7,0,1.5,0,2.3,0
		c0.3,0,0.7,0,1,0c1.5,0,2.9-0.1,3.9-1.1c0.7-0.7,1.1-1.7,1.1-3C192.6,292.8,189.4,289.7,185.5,289.7z M189.5,297.6
		c-0.3,0.3-1.7,0.3-2.8,0.3c-0.4,0-0.8,0-1.2,0s-0.8,0-1.2,0c-1.1,0-2.5,0.1-2.8-0.3c-0.1-0.1-0.2-0.5-0.2-0.9
		c0-2.3,1.9-4.2,4.2-4.2s4.2,1.9,4.2,4.2C189.7,297.2,189.6,297.5,189.5,297.6z"/>
	<path class="st0" d="M243.7,285.1c-3.9,0-7.1,3.2-7.1,7.1c0,1.3,0.4,2.3,1.1,3c1.2,1.2,3,1.1,4.9,1.1c0.7,0,1.5,0,2.3,0
		c0.3,0,0.7,0,1,0c1.5,0,2.9-0.1,3.9-1.1c0.7-0.7,1.1-1.7,1.1-3C250.8,288.3,247.6,285.1,243.7,285.1z M247.7,293.1
		c-0.3,0.3-1.7,0.3-2.8,0.3c-0.4,0-0.8,0-1.2,0s-0.8,0-1.2,0c-1.1,0-2.5,0.1-2.8-0.3c-0.1-0.1-0.2-0.5-0.2-0.9
		c0-2.3,1.9-4.2,4.2-4.2s4.2,1.9,4.2,4.2C247.9,292.7,247.8,293,247.7,293.1z"/>
</g>
</svg>
