<?xml version="1.0" encoding="utf-8"?>
<!-- Generator: Adobe Illustrator 19.2.0, SVG Export Plug-In . SVG Version: 6.00 Build 0)  -->
<svg version="1.1" id="Слой_1" xmlns="http://www.w3.org/2000/svg" xmlns:xlink="http://www.w3.org/1999/xlink" x="0px" y="0px"
	 width="366.6px" height="366.6px" viewBox="0 0 366.6 366.6" style="enable-background:new 0 0 366.6 366.6;" xml:space="preserve"
	>
<style type="text/css">
	.st0{fill:#FFFFFF;}
</style>
<g>
	<path class="st0" d="M114.8,265.1h131c5.2,0,9.4-4.2,9.4-9.4V184c0-5.2-4.2-9.4-9.4-9.4h-131c-5.2,0-9.4,4.2-9.4,9.4v71.7
		C105.4,260.9,109.6,265.1,114.8,265.1z M245.9,262.1h-131c-3.5,0-6.4-2.9-6.4-6.4v-48.1h143.8v48.1
		C252.3,259.2,249.4,262.1,245.9,262.1z M114.8,177.5h131c3.5,0,6.4,2.9,6.4,6.4v20.6H108.4v-20.6
		C108.4,180.4,111.3,177.5,114.8,177.5z"/>
	<path class="st0" d="M97.9,218.6v43.3c0,5.2,4.2,9.4,9.4,9.4h7.8l-4.3,13.2h7.2l9-13.2h104l9,13.2h7.2l-4.3-13.2h10.4
		c5.2,0,9.4-4.2,9.4-9.4v-43.3c3.2-0.2,5.7-2.8,5.7-6v-28.9c0-3.2-2.5-5.8-5.7-6v-1.9c0-5.2-4.2-9.4-9.4-9.4h-17.8v-2.3
		c0-1.1-0.9-2.1-2.1-2.1h-21.5c-1.1,0-2.1,0.9-2.1,2.1v2.3h-2.1v-2.3c0-1.1-0.9-2.1-2.1-2.1h-6.4c-1.1,0-2.1,0.9-2.1,2.1v2.3h-1.8
		v-2.3c0-1.1-0.9-2.1-2.1-2.1h-6.4c-1.1,0-2.1,0.9-2.1,2.1v2.3h-1.5v-2.3c0-1.1-0.9-2.1-2.1-2.1h-6.4c-1.1,0-2.1,0.9-2.1,2.1v2.3
		h-2.3v-2.3c0-1.1-0.9-2.1-2.1-2.1h-6.4c-1.1,0-2.1,0.9-2.1,2.1v2.3h-19.4v-0.2c0-3.6-2.4-6.7-5.8-7.6l69.2-24.5
		c0.8-0.3,1.2-1.2,0.9-1.9c-0.3-0.8-1.2-1.2-1.9-0.9l-75.9,26.9c-0.1,0-0.2,0.1-0.3,0.2h-3.3c-4.4,0-7.9,3.6-7.9,7.9v0.2h-8.4
		c-5.2,0-9.4,4.2-9.4,9.4v1.9c-3.1,0.2-5.6,2.8-5.6,6v28.7C92.3,215.7,94.7,218.3,97.9,218.6z M116.4,281.4H115l3.3-10.2h5
		L116.4,281.4z M243.1,281.4h-1.4l-6.9-10.2h5L243.1,281.4z M265.4,183.6v28.9c0,1.5-1.1,2.8-2.6,3v-34.9
		C264.3,180.8,265.4,182.1,265.4,183.6z M212.9,164.9h19.6v1.3h-19.6V164.9z M200.4,164.9h4.4v1.3h-4.4V164.9z M188.1,164.9h4.4v1.3
		h-4.4V164.9z M176,164.9h4.4v1.3H176V164.9z M163.2,164.9h4.4v1.3h-4.4V164.9z M118.8,166c0-2.7,2.2-4.9,4.9-4.9h9.2
		c2.7,0,4.9,2.2,4.9,4.9v0.2h-19V166z M100.9,175.6c0-3.5,2.9-6.4,6.4-6.4h8.4h25.1h19.4h10.5h2.3h10.5h1.5h10.5h1.8h10.5h2.1h25.7
		h17.8c3.5,0,6.4,2.9,6.4,6.4v1.9v41.1v43.2c0,3.5-2.9,6.4-6.4,6.4h-146c-3.5,0-6.4-2.9-6.4-6.4v-43.2v-41.1v-1.9H100.9z
		 M95.3,183.6c0-1.5,1.1-2.8,2.6-3v34.9c-1.5-0.2-2.6-1.5-2.6-3V183.6z"/>
	<rect x="115.4" y="211" class="st0" width="127.8" height="3"/>
	<rect x="115.4" y="216.7" class="st0" width="127.8" height="3"/>
	<rect x="115.4" y="222.3" class="st0" width="127.8" height="3"/>
	<rect x="115.4" y="227.3" class="st0" width="127.8" height="3"/>
	<rect x="115.4" y="233" class="st0" width="127.8" height="3"/>
	<rect x="115.4" y="238.6" class="st0" width="127.8" height="3"/>
	<rect x="115.4" y="243.9" class="st0" width="127.8" height="3"/>
	<rect x="115.4" y="249.5" class="st0" width="127.8" height="3"/>
	<rect x="115.4" y="255.1" class="st0" width="127.8" height="3"/>
	<path class="st0" d="M126.3,200.7c5.8,0,10.6-4.7,10.6-10.6c0-5.8-4.7-10.6-10.6-10.6c-5.8,0-10.6,4.7-10.6,10.6
		C115.7,195.9,120.4,200.7,126.3,200.7z M126.3,182.6c4.1,0,7.5,3.4,7.5,7.5s-3.4,7.5-7.5,7.5s-7.5-3.4-7.5-7.5
		S122.1,182.6,126.3,182.6z"/>
	<path class="st0" d="M126.3,196c3.2,0,5.9-2.6,5.9-5.9c0-3.2-2.6-5.9-5.9-5.9c-3.2,0-5.9,2.6-5.9,5.9
		C120.4,193.3,123,196,126.3,196z M126.3,187.3c1.6,0,2.8,1.3,2.8,2.8s-1.3,2.8-2.8,2.8s-2.8-1.3-2.8-2.8S124.7,187.3,126.3,187.3z"
		/>
	<path class="st0" d="M234.2,196c3.2,0,5.9-2.6,5.9-5.9c0-3.2-2.6-5.9-5.9-5.9c-3.2,0-5.9,2.6-5.9,5.9
		C228.3,193.3,230.9,196,234.2,196z M234.2,187.3c1.6,0,2.8,1.3,2.8,2.8s-1.3,2.8-2.8,2.8c-1.6,0-2.8-1.3-2.8-2.8
		S232.6,187.3,234.2,187.3z"/>
	<path class="st0" d="M234.2,200.7c5.8,0,10.6-4.7,10.6-10.6c0-5.8-4.7-10.6-10.6-10.6c-5.8,0-10.6,4.7-10.6,10.6
		C223.6,195.9,228.4,200.7,234.2,200.7z M234.2,182.6c4.1,0,7.5,3.4,7.5,7.5s-3.4,7.5-7.5,7.5s-7.5-3.4-7.5-7.5
		S230,182.6,234.2,182.6z"/>
	<path class="st0" d="M142.5,191.6h2.4v3.6c0,0.8,0.7,1.5,1.5,1.5s1.5-0.7,1.5-1.5v-3.6h2.6v3.6c0,0.8,0.7,1.5,1.5,1.5
		s1.5-0.7,1.5-1.5v-3.6h2.8v3.6c0,0.8,0.7,1.5,1.5,1.5s1.5-0.7,1.5-1.5v-3.6h3.1v3.6c0,0.8,0.7,1.5,1.5,1.5s1.5-0.7,1.5-1.5v-3.6
		h3.4v3.6c0,0.8,0.7,1.5,1.5,1.5s1.5-0.7,1.5-1.5v-3.6h3.1v3.6c0,0.8,0.7,1.5,1.5,1.5s1.5-0.7,1.5-1.5v-3.6h3.6v3.6
		c0,0.8,0.7,1.5,1.5,1.5s1.5-0.7,1.5-1.5v-3.6h3.4v7.9c0,0.8,0.7,1.5,1.5,1.5s1.5-0.7,1.5-1.5v-7.9h4.2v3.6c0,0.8,0.7,1.5,1.5,1.5
		s1.5-0.7,1.5-1.5v-3.6h3.6v3.6c0,0.8,0.7,1.5,1.5,1.5s1.5-0.7,1.5-1.5v-3.6h3.4v3.6c0,0.8,0.7,1.5,1.5,1.5s1.5-0.7,1.5-1.5v-3.6
		h5.6c0.8,0,1.5-0.7,1.5-1.5s-0.7-1.5-1.5-1.5h-5.6v-3.4c0-0.8-0.7-1.5-1.5-1.5s-1.5,0.7-1.5,1.5v3.4h-3.4v-3.4
		c0-0.8-0.7-1.5-1.5-1.5s-1.5,0.7-1.5,1.5v3.4h-3.6v-3.4c0-0.8-0.7-1.5-1.5-1.5s-1.5,0.7-1.5,1.5v3.4h-4.2v-8c0-0.8-0.7-1.5-1.5-1.5
		s-1.5,0.7-1.5,1.5v8h-3.4v-3.4c0-0.8-0.7-1.5-1.5-1.5s-1.5,0.7-1.5,1.5v3.4h-3.6v-3.4c0-0.8-0.7-1.5-1.5-1.5s-1.5,0.7-1.5,1.5v3.4
		h-3.1v-3.4c0-0.8-0.7-1.5-1.5-1.5s-1.5,0.7-1.5,1.5v3.4h-3.4v-3.4c0-0.8-0.7-1.5-1.5-1.5s-1.5,0.7-1.5,1.5v3.4h-3.1v-3.4
		c0-0.8-0.7-1.5-1.5-1.5s-1.5,0.7-1.5,1.5v3.4h-2.8v-3.4c0-0.8-0.7-1.5-1.5-1.5s-1.5,0.7-1.5,1.5v3.4H148v-3.4
		c0-0.8-0.7-1.5-1.5-1.5s-1.5,0.7-1.5,1.5v3.4h-2.4c-0.8,0-1.5,0.7-1.5,1.5S141.7,191.6,142.5,191.6z"/>
	<path class="st0" d="M276.1,285.8H90.5c-0.8,0-1.5,0.7-1.5,1.5s0.7,1.5,1.5,1.5H276c0.8,0,1.5-0.7,1.5-1.5S276.9,285.8,276.1,285.8
		z"/>
	<path class="st0" d="M268.2,291.7H111.3c-0.8,0-1.5,0.7-1.5,1.5s0.7,1.5,1.5,1.5h156.9c0.8,0,1.5-0.7,1.5-1.5
		S269.1,291.7,268.2,291.7z"/>
	<path class="st0" d="M255.1,298H98.2c-0.8,0-1.5,0.7-1.5,1.5s0.7,1.5,1.5,1.5h156.9c0.8,0,1.5-0.7,1.5-1.5S256,298,255.1,298z"/>
	<path class="st0" d="M228.8,304.1h-78.1c-0.8,0-1.5,0.7-1.5,1.5s0.7,1.5,1.5,1.5h78.1c0.8,0,1.5-0.7,1.5-1.5
		S229.7,304.1,228.8,304.1z"/>
</g>
</svg>
