<?xml version="1.0" encoding="UTF-8"?>
<svg xmlns="http://www.w3.org/2000/svg" xmlns:xlink="http://www.w3.org/1999/xlink" width="24" height="24" viewBox="0 0 24 24">
  <defs>
    <linearGradient id="a" x1="-375.730135%" x2="-375.730135%" y1="-167.518792%" y2="-163.849894%">
      <stop offset="0%" stop-color="#6EBF61"/>
      <stop offset="23.1%" stop-color="#50A557"/>
      <stop offset="52.2%" stop-color="#2A904F"/>
      <stop offset="81.2%" stop-color="#50A557"/>
      <stop offset="100%" stop-color="#6EBF63"/>
    </linearGradient>
  </defs>
  <g fill="none">
    <path fill="#FEFEFE" stroke="#6EBF63" d="M12.370952 20.97504c-1.833726 0-3.545053-.552742-4.974684-1.49338l-3.476053 1.110586L5.047 17.23334c-1.084186-1.48828-1.721827-3.321856-1.721827-5.29898 0-4.985332 4.055195-9.040528 9.040529-9.040528 4.985333 0 9.040528 4.055196 9.040528 9.040529 0 4.985183-4.055195 9.040529-9.040529 9.040529h.00525v.00015zm0-19.792684c-5.93692 0-10.752006 4.815535-10.752006 10.752156 0 2.030223.563392 3.932947 1.541229 5.553975L1.220251 23.25516l5.95282-1.907974c1.591097.879803 3.379739 1.34068 5.19788 1.339332 5.93677 0 10.752006-4.815236 10.752006-10.752006-.00015-5.93662-4.815235-10.752156-10.752005-10.752156z"/>
    <path fill="url(#a)" d="M11.15085 1.711477c-4.985333 0-9.040528 4.055196-9.040528 9.040529 0 1.977123.637791 3.810699 1.721977 5.298979L2.705514 19.40989l3.475903-1.110585c1.42963.946037 3.135708 1.49338 4.974683 1.49338 4.985334 0 9.04053-4.055346 9.04053-9.04053 0-4.985332-4.055196-9.040528-9.04053-9.040528h-.00525v-.00015z" transform="translate(1.220101 1.182356)"/>
    <path fill="#FEFEFE" d="M9.846335 7.486021c-.175347-.419844-.308246-.435744-.573892-.446544a5.106975 5.106975 0 0 0-.302996-.0105c-.345595 0-.70694.10095-.924888.324146-.265646.271047-.924737.903438-.924737 2.20032 0 1.296883.946037 2.551167 1.073535 2.726664.132899.175198 1.844376 2.875162 4.50174 3.975547 2.078072.860988 2.694714.78119 3.167658.68024.69089-.148797 1.557279-.65924 1.775226-1.275582.217947-.616642.217947-1.142835.154048-1.254433-.06375-.111599-.239247-.175198-.504894-.308246-.265646-.132898-1.557279-.77069-1.801775-.855739-.239247-.090299-.467694-.058349-.648292.196798-.255146.356095-.504893.71759-.70694.935387-.159448.170098-.419994.191397-.637792.100949-.292346-.122099-1.110735-.409345-2.120671-1.307533-.78134-.69614-1.312783-1.562379-1.46683-1.822775-.154198-.265647-.0159-.419995.106198-.563393.132898-.164848.260397-.281696.393295-.435894.132898-.154048.207297-.233847.292346-.414594.090449-.175348.02655-.356096-.0372-.488994-.063749-.132898-.595192-1.42978-.813139-1.955824z"/>
  </g>
</svg>
