<svg xmlns="http://www.w3.org/2000/svg" width="26" height="49">
  <g fill="#BD0FE1" fill-rule="evenodd">
    <path d="M24.7619 45.73232c0 1.00853-.83323 1.82927-1.85714 1.82927H3.09524c-1.0239 0-1.85714-.8208-1.85714-1.8293V6.7079c0-1.00975.83323-1.82926 1.85714-1.82926h19.80952c1.0239 0 1.85714.8195 1.85714 1.82927v39.0244zM7.42857 2.43962c0-.67316.55095-1.2195 1.2282-1.2195h8.68647c.68838 0 1.2282.53537 1.2282 1.2195v1.21953H7.42856V2.43963zm15.4762 1.21953H19.8095V2.43963c0-1.34634-1.10685-2.43902-2.46628-2.43902H8.65676c-1.35943 0-2.46628 1.0927-2.46628 2.4391v1.2195H3.09524C1.38914 3.6592 0 5.0262 0 6.708v39.0244c0 1.6817 1.38914 3.04877 3.09524 3.04877h19.80952C24.61086 48.7811 26 47.414 26 45.7323V6.70793c0-1.6817-1.38914-3.04877-3.09524-3.04877z"/>
    <path d="M21.07548 43.2933c0 .33536-.27734.60975-.61905.60975H5.57205c-.34172 0-.61905-.2744-.61905-.60976v-2.4391c0-.3354.27733-.6098.61905-.6098h14.88438c.3417 0 .61905.2744.61905.6097v2.439zm-.61905-4.2683H5.57205c-1.02515 0-1.85715.82073-1.85715 1.82927v2.43902c0 1.0085.832 1.8292 1.85715 1.8292h14.88438c1.0239 0 1.85714-.8208 1.85714-1.8293v-2.439c0-1.0086-.83324-1.8293-1.85714-1.8293zm.61905-4.2683c0 .33537-.27734.60976-.61905.60976H5.57205c-.34172 0-.61905-.2744-.61905-.60975v-2.439c0-.3353.27733-.6097.61905-.6097h14.88438c.3417 0 .61905.2744.61905.6098v2.4391zm-.61905-4.2683H5.57205c-1.02515 0-1.85715.82075-1.85715 1.82928v2.43903c0 1.0086.832 1.8293 1.85715 1.8293h14.88438c1.0239 0 1.85714-.8207 1.85714-1.8292v-2.4391c0-1.0085-.83324-1.8292-1.85714-1.8292zm.61905-4.26828c0 .33537-.27734.60976-.61905.60976H5.57205c-.34172 0-.61905-.2744-.61905-.60976V23.7811c0-.33537.27733-.60976.61905-.60976h14.88438c.3417 0 .61905.2744.61905.60976v2.43902zm-.61905-4.2683H5.57205c-1.02515 0-1.85715.82074-1.85715 1.82928v2.43902c0 1.00854.832 1.82927 1.85715 1.82927h14.88438c1.0239 0 1.85714-.8208 1.85714-1.8293v-2.439c0-1.0086-.83324-1.8293-1.85714-1.8293z"/>
  </g>
</svg>
